Company,Model,Memory,Colour,Grade,URL -https://swappie.com/nl/,URL - Refurbed.de,URL - Backmarket.fr,forza-refurbished.nl,/www.refurbished.nl/,www.recommerce.com/fr/,URL - https://www.apple.com/nl/iphone/
Swappie,iPhone 8,64 GB,Space Gray,A,https://swappie.com/nl/iphone/iphone-8/iphone-8-64gb-spacegrijs-7/,https://www.refurbed.de/p/apple-iphone-8/931/,https://www.backmarket.fr/iphone-8-64-go-gris-sideral-debloque-tout-operateur-pas-cher/36827.html#l=10,https://www.forza-refurbished.nl/apple-iphone/8/iphone-8-64gb-spacegray,https://www.refurbished.nl/iphone-8/64gb-space-grey?spi=69558,https://www.recommerce.com/fr/iphone-8-64go-gris-sideral?grade=5459,
Swappie,iPhone 8,64 GB,Space Gray,B,https://swappie.com/nl/iphone/iphone-8/iphone-8-64gb-spacegrijs-6/,https://www.refurbed.de/p/apple-iphone-8/931b/,https://www.backmarket.fr/iphone-8-64-go-gris-sideral-debloque-tout-operateur-pas-cher/36827.html#l=11,https://www.forza-refurbished.nl/apple-iphone/8/iphone-8-64gb-spacegray,https://www.refurbished.nl/iphone-8/64gb-space-grey?spi=111529,https://www.recommerce.com/fr/iphone-8-64go-gris-sideral?grade=5456,
Swappie,iPhone 8,64 GB,Space Gray,C,https://swappie.com/nl/iphone/iphone-8/iphone-8-64gb-spacegrijs-5/,https://www.refurbed.de/p/apple-iphone-8/931c/,https://www.backmarket.fr/iphone-8-64-go-gris-sideral-debloque-tout-operateur-pas-cher/36827.html#l=12,https://www.forza-refurbished.nl/apple-iphone/8/iphone-8-64gb-spacegray,https://www.refurbished.nl/iphone-8/64gb-space-grey?spi=69556,https://www.recommerce.com/fr/iphone-8-64go-gris-sideral?grade=5457,
Swappie,iPhone 8,128 GB,Space Gray,A,,https://www.refurbed.de/p/apple-iphone-8/5512/,,,https://www.refurbished.nl/iphone-8/128gb-space-grey?spi=74127,,
Swappie,iPhone 8,128 GB,Space Gray,B,https://swappie.com/nl/iphone/iphone-8/iphone-8-128gb-spacegrijs-7/,https://www.refurbed.de/p/apple-iphone-8/5512b/,https://www.backmarket.fr/iphone-8-128-go-gris-sideral-debloque-tout-operateur-pas-cher/295419.html#l=11,,,,
Swappie,iPhone 8,128 GB,Space Gray,C,,https://www.refurbed.de/p/apple-iphone-8/5512c/,https://www.backmarket.fr/iphone-8-128-go-gris-sideral-debloque-tout-operateur-pas-cher/295419.html#l=12,,,,
Swappie,iPhone 8,256 GB,Space Gray,A,,https://www.refurbed.de/p/apple-iphone-8/933/,https://www.backmarket.fr/iphone-8-256-go-gris-sideral-debloque-tout-operateur-pas-cher/36830.html#l=10,https://www.forza-refurbished.nl/apple-iphone/8/iphone-8-256gb-space-grey,https://www.refurbished.nl/iphone-8/256gb-space-grey?spi=38473,,
Swappie,iPhone 8,256 GB,Space Gray,B,https://swappie.com/nl/iphone/iphone-8/iphone-8-256gb-spacegrijs-6/,https://www.refurbed.de/p/apple-iphone-8/933b/,https://www.backmarket.fr/iphone-8-256-go-gris-sideral-debloque-tout-operateur-pas-cher/36830.html#l=11,https://www.forza-refurbished.nl/apple-iphone/8/iphone-8-256gb-space-grey,https://www.refurbished.nl/iphone-8/256gb-space-grey?spi=37454,https://www.recommerce.com/fr/iphone-8-256go-gris-sideral?grade=5456,
Swappie,iPhone 8,256 GB,Space Gray,C,https://swappie.com/nl/iphone/iphone-8/iphone-8-256gb-spacegrijs/,https://www.refurbed.de/p/apple-iphone-8/933c/,https://www.backmarket.fr/iphone-8-256-go-gris-sideral-debloque-tout-operateur-pas-cher/36830.html#l=12,https://www.forza-refurbished.nl/apple-iphone/8/iphone-8-256gb-space-grey,https://www.refurbished.nl/iphone-8/256gb-space-grey?spi=111451,,
,iPhone 8,64 GB,Gold,A,https://swappie.com/nl/iphone/iphone-8/iphone-8-64gb-goud-7/,https://www.refurbed.de/p/apple-iphone-8/932/,https://www.backmarket.fr/iphone-8-64-go-or-debloque-tout-operateur-pas-cher/36829.html#l=10,https://www.forza-refurbished.nl/apple-iphone/8/iphone-8-64gb-gold,https://www.refurbished.nl/iphone-8/64gb-gold?spi=97154,https://www.recommerce.com/fr/iphone-8-64go-or?grade=5459,
,iPhone 8,64 GB,Gold,B,https://swappie.com/nl/iphone/iphone-8/iphone-8-64gb-goud-6/,https://www.refurbed.de/p/apple-iphone-8/932b/,https://www.backmarket.fr/iphone-8-64-go-or-debloque-tout-operateur-pas-cher/36829.html#l=11,https://www.forza-refurbished.nl/apple-iphone/8/iphone-8-64gb-gold,https://www.refurbished.nl/iphone-8/64gb-gold?spi=105027,,
,iPhone 8,64 GB,Gold,C,https://swappie.com/nl/iphone/iphone-8/iphone-8-64gb-goud-5/,https://www.refurbed.de/p/apple-iphone-8/932c/,https://www.backmarket.fr/iphone-8-64-go-or-debloque-tout-operateur-pas-cher/36829.html#l=12,https://www.forza-refurbished.nl/apple-iphone/8/iphone-8-64gb-gold,https://www.refurbished.nl/iphone-8/64gb-gold?spi=39047,,
,iPhone 8,128 GB,Gold,A,,https://www.refurbed.de/p/apple-iphone-8/5514/,,,,,
,iPhone 8,128 GB,Gold,B,,https://www.refurbed.de/p/apple-iphone-8/5514b/,https://www.backmarket.fr/iphone-8-128-go-or-debloque-tout-operateur-pas-cher/327597.html#l=11,,https://www.refurbished.nl/iphone-8/128gb-gold?spi=74123,,
,iPhone 8,128 GB,Gold,C,,https://www.refurbed.de/p/apple-iphone-8/5514c/,,,,,
,iPhone 8,256 GB,Gold,A,https://swappie.com/nl/iphone/iphone-8/iphone-8-256gb-goud-7/,https://www.refurbed.de/p/apple-iphone-8/1084/,https://www.backmarket.fr/iphone-8-256-go-or-debloque-tout-operateur-pas-cher/36832.html#l=10,https://www.forza-refurbished.nl/apple-iphone/8/iphone-8-256gb-gold,https://www.refurbished.nl/iphone-8/256gb-gold?spi=74121,,
,iPhone 8,256 GB,Gold,B,https://swappie.com/nl/iphone/iphone-8/iphone-8-256gb-goud-2/,https://www.refurbed.de/p/apple-iphone-8/1084b/,https://www.backmarket.fr/iphone-8-256-go-or-debloque-tout-operateur-pas-cher/36832.html#l=11,https://www.forza-refurbished.nl/apple-iphone/8/iphone-8-256gb-gold,https://www.refurbished.nl/iphone-8/256gb-gold?spi=74120,https://www.recommerce.com/fr/iphone-8-256go-or?grade=5456,
,iPhone 8,256 GB,Gold,C,https://swappie.com/nl/iphone/iphone-8/iphone-8-256gb-goud-5/,https://www.refurbed.de/p/apple-iphone-8/1084c/,https://www.backmarket.fr/iphone-8-256-go-or-debloque-tout-operateur-pas-cher/36832.html#l=12,https://www.forza-refurbished.nl/apple-iphone/8/iphone-8-256gb-gold,https://www.refurbished.nl/iphone-8/256gb-gold?spi=69095,,
,iPhone 8,64 GB,Silver,A,https://swappie.com/nl/iphone/iphone-8/iphone-8-64gb-zilver-7/,https://www.refurbed.de/p/apple-iphone-8/1083/,https://www.backmarket.fr/iphone-8-64-go-argent-debloque-tout-operateur-pas-cher/36828.html#l=10,https://www.forza-refurbished.nl/apple-iphone/8/iphone-8-64gb-silver,https://www.refurbished.nl/iphone-8/64gb-silver?spi=111530,https://www.recommerce.com/fr/iphone-8-64go-argent?grade=5459,
,iPhone 8,64 GB,Silver,B,https://swappie.com/nl/iphone/iphone-8/iphone-8-64gb-zilver-6/,https://www.refurbed.de/p/apple-iphone-8/1083b/,https://www.backmarket.fr/iphone-8-64-go-argent-debloque-tout-operateur-pas-cher/36828.html#l=11,https://www.forza-refurbished.nl/apple-iphone/8/iphone-8-64gb-silver,https://www.refurbished.nl/iphone-8/64gb-silver?spi=111531,,
,iPhone 8,64 GB,Silver,C,https://swappie.com/nl/iphone/iphone-8/iphone-8-64gb-zilver-5/,https://www.refurbed.de/p/apple-iphone-8/1083c/,https://www.backmarket.fr/iphone-8-64-go-argent-debloque-tout-operateur-pas-cher/36828.html#l=12,https://www.forza-refurbished.nl/apple-iphone/8/iphone-8-64gb-silver,https://www.refurbished.nl/iphone-8/64gb-silver?spi=108675,,
,iPhone 8,128 GB,Silver,A,,https://www.refurbed.de/p/apple-iphone-8/5513/,,,https://www.refurbished.nl/iphone-8/128gb-silver?spi=74130,,
,iPhone 8,128 GB,Silver,B,,https://www.refurbed.de/p/apple-iphone-8/5513b/,https://www.backmarket.fr/iphone-8-128-go-argent-debloque-tout-operateur-pas-cher/295424.html#l=11,,,,
,iPhone 8,128 GB,Silver,C,,https://www.refurbed.de/p/apple-iphone-8/5513c/,https://www.backmarket.fr/iphone-8-128-go-argent-debloque-tout-operateur-pas-cher/295424.html#l=12,,,,
,iPhone 8,256 GB,Silver,A,https://swappie.com/nl/iphone/iphone-8/iphone-8-256gb-zilver-7/,https://www.refurbed.de/p/apple-iphone-8/1085/,https://www.backmarket.fr/iphone-8-256-go-argent-debloque-tout-operateur-pas-cher/36831.html#l=10,https://www.forza-refurbished.nl/apple-iphone/8/iphone-8-256gb-silver,https://www.refurbished.nl/iphone-8/256gb-silver?spi=74115,,
,iPhone 8,256 GB,Silver,B,https://swappie.com/nl/iphone/iphone-8/iphone-8-256gb-zilver-6/,https://www.refurbed.de/p/apple-iphone-8/1085b/,https://www.backmarket.fr/iphone-8-256-go-argent-debloque-tout-operateur-pas-cher/36831.html#l=11,https://www.forza-refurbished.nl/apple-iphone/8/iphone-8-256gb-silver,https://www.refurbished.nl/iphone-8/256gb-silver?spi=37455,https://www.recommerce.com/fr/iphone-8-256go-argent?grade=5456,
,iPhone 8,256 GB,Silver,C,https://swappie.com/nl/iphone/iphone-8/iphone-8-256gb-zilver-5/,https://www.refurbed.de/p/apple-iphone-8/1085c/,https://www.backmarket.fr/iphone-8-256-go-argent-debloque-tout-operateur-pas-cher/36831.html#l=12,https://www.forza-refurbished.nl/apple-iphone/8/iphone-8-256gb-silver,https://www.refurbished.nl/iphone-8/256gb-silver?spi=68935,,
,iPhone 8,64 GB,Red,A,https://swappie.com/nl/iphone/iphone-8/iphone-8-64gb-rood-7/,https://www.refurbed.de/p/apple-iphone-8/2151/,https://www.backmarket.fr/iphone-8-64-go-productred-debloque-tout-operateur-pas-cher/127776.html#l=10,https://www.forza-refurbished.nl/apple-iphone/8/iphone-8-64gb-red,https://www.refurbished.nl/iphone-8/64gb-red?spi=39245,,
,iPhone 8,64 GB,Red,B,,https://www.refurbed.de/p/apple-iphone-8/2151b/,https://www.backmarket.fr/iphone-8-64-go-productred-debloque-tout-operateur-pas-cher/127776.html#l=11,https://www.forza-refurbished.nl/apple-iphone/8/iphone-8-64gb-red,https://www.refurbished.nl/iphone-8/64gb-red?spi=70389,,
,iPhone 8,64 GB,Red,C,,https://www.refurbed.de/p/apple-iphone-8/2151c/,https://www.backmarket.fr/iphone-8-64-go-productred-debloque-tout-operateur-pas-cher/127776.html#l=12,https://www.forza-refurbished.nl/apple-iphone/8/iphone-8-64gb-red,,,
,iPhone 8,128 GB,Red,A,,https://www.refurbed.de/p/apple-iphone-8/15053/,,,,,
,iPhone 8,128 GB,Red,B,,https://www.refurbed.de/p/apple-iphone-8/15053b/,,,,,
,iPhone 8,128 GB,Red,C,,https://www.refurbed.de/p/apple-iphone-8/15053c/,,,,,
,iPhone 8,256 GB,Red,A,,https://www.refurbed.de/p/apple-iphone-8/2152/,https://www.backmarket.fr/iphone-8-256-go-productred-debloque-tout-operateur-pas-cher/129008.html#l=10,https://www.forza-refurbished.nl/apple-iphone/8/iphone-8-256gb-red,https://www.refurbished.nl/iphone-8/256gb-rood?spi=74118,,
,iPhone 8,256 GB,Red,B,,https://www.refurbed.de/p/apple-iphone-8/2152b/,https://www.backmarket.fr/iphone-8-256-go-productred-debloque-tout-operateur-pas-cher/129008.html#l=11,https://www.forza-refurbished.nl/apple-iphone/8/iphone-8-256gb-red,https://www.refurbished.nl/iphone-8/256gb-rood?spi=74117,,
,iPhone 8,256 GB,Red,C,,https://www.refurbed.de/p/apple-iphone-8/2152c/,https://www.backmarket.fr/iphone-8-256-go-productred-debloque-tout-operateur-pas-cher/129008.html#l=12,https://www.forza-refurbished.nl/apple-iphone/8/iphone-8-256gb-red,https://www.refurbished.nl/iphone-8/256gb-rood?spi=69229,,
,iPhone SE 2020,64 GB,Black,A,https://swappie.com/nl/iphone/iphone-se-2020/iphone-se-2020-64gb-zwart-27/,https://www.refurbed.de/p/iphone-se-2020/6221/,https://www.backmarket.fr/iphone-se-2020-64-go-noir-debloque-tout-operateur-pas-cher/347172.html#l=10,https://www.forza-refurbished.nl/apple-iphone/se-2020/iphone-se-2020-64gb-black,https://www.refurbished.nl/iphone-se-2020/64gb-zwart?spi=97228,,
,iPhone SE 2020,64 GB,Black,B,https://swappie.com/nl/iphone/iphone-se-2020/iphone-se-2020-64gb-zwart-24/,https://www.refurbed.de/p/iphone-se-2020/6221b/,https://www.backmarket.fr/iphone-se-2020-64-go-noir-debloque-tout-operateur-pas-cher/347172.html#l=11,https://www.forza-refurbished.nl/apple-iphone/se-2020/iphone-se-2020-64gb-black,https://www.refurbished.nl/iphone-se-2020/64gb-zwart?spi=111564,https://www.recommerce.com/fr/iphone-se-2020-64go-noir?grade=5456,
,iPhone SE 2020,64 GB,Black,C,https://swappie.com/nl/iphone/iphone-se-2020/iphone-se-2020-64gb-zwart-21/,https://www.refurbed.de/p/iphone-se-2020/6221c/,https://www.backmarket.fr/iphone-se-2020-64-go-noir-debloque-tout-operateur-pas-cher/347172.html#l=12,https://www.forza-refurbished.nl/apple-iphone/se-2020/iphone-se-2020-64gb-black,https://www.refurbished.nl/iphone-se-2020/64gb-zwart?spi=81112,,
,iPhone SE 2020,128 GB,Black,A,https://swappie.com/nl/iphone/iphone-se-2020/iphone-se-2020-128gb-zwart-27/,https://www.refurbed.de/p/iphone-se-2020/6222/,https://www.backmarket.fr/iphone-se-2020-128-go-noir-debloque-tout-operateur-pas-cher/347182.html#l=10,https://www.forza-refurbished.nl/se-2020/iphone-se-2020-128gb-black,https://www.refurbished.nl/iphone-se-2020/128gb-zwart?spi=73994,https://www.recommerce.com/fr/iphone-se-2020-128go-noir?grade=5459,
,iPhone SE 2020,128 GB,Black,B,https://swappie.com/nl/iphone/iphone-se-2020/iphone-se-2020-128gb-zwart-9/,https://www.refurbed.de/p/iphone-se-2020/6222b/,https://www.backmarket.fr/iphone-se-2020-128-go-noir-debloque-tout-operateur-pas-cher/347182.html#l=11,https://www.forza-refurbished.nl/se-2020/iphone-se-2020-128gb-black,https://www.refurbished.nl/iphone-se-2020/128gb-zwart?spi=78408,https://www.recommerce.com/fr/iphone-se-2020-128go-noir?grade=5456,
,iPhone SE 2020,128 GB,Black,C,https://swappie.com/nl/iphone/iphone-se-2020/iphone-se-2020-128gb-zwart-6/,https://www.refurbed.de/p/iphone-se-2020/6222c/,https://www.backmarket.fr/iphone-se-2020-128-go-noir-debloque-tout-operateur-pas-cher/347182.html#l=12,https://www.forza-refurbished.nl/se-2020/iphone-se-2020-128gb-black,https://www.refurbished.nl/iphone-se-2020/128gb-zwart?spi=110738,,
,iPhone SE 2020,256 GB,Black,A,https://swappie.com/nl/iphone/iphone-se-2020/iphone-se-2020-256gb-zwart-27/,https://www.refurbed.de/p/iphone-se-2020/6223/,https://www.backmarket.fr/iphone-se-2020-256-go-noir-debloque-tout-operateur-pas-cher/347192.html#l=10,,https://www.refurbished.nl/iphone-se-2020/256gb-zwart?spi=111087,https://www.recommerce.com/fr/iphone-se-2020-256go-noir?grade=5459,
,iPhone SE 2020,256 GB,Black,B,https://swappie.com/nl/iphone/iphone-se-2020/iphone-se-2020-256gb-zwart-24/,https://www.refurbed.de/p/iphone-se-2020/6223b/,https://www.backmarket.fr/iphone-se-2020-256-go-noir-debloque-tout-operateur-pas-cher/347192.html#l=11,,https://www.refurbished.nl/iphone-se-2020/256gb-zwart?spi=111085,,
,iPhone SE 2020,256 GB,Black,C,https://swappie.com/nl/iphone/iphone-se-2020/iphone-se-2020-256gb-zwart-21/,https://www.refurbed.de/p/iphone-se-2020/6223c/,https://www.backmarket.fr/iphone-se-2020-256-go-noir-debloque-tout-operateur-pas-cher/347192.html#l=12,,https://www.refurbished.nl/iphone-se-2020/256gb-zwart?spi=109433,https://www.recommerce.com/fr/iphone-se-2020-256go-noir?grade=5457,
,iPhone SE 2020,64 GB,White,A,https://swappie.com/nl/iphone/iphone-se-2020/iphone-se-2020-64gb-wit-27/,https://www.refurbed.de/p/iphone-se-2020/6227/,https://www.backmarket.fr/iphone-se-2020-64-go-blanc-debloque-tout-operateur-pas-cher/347380.html#l=10,https://www.forza-refurbished.nl/se-2020/iphone-se-2020-64gb-white,https://www.refurbished.nl/iphone-se-2020/64gb-wit?spi=111469,https://www.recommerce.com/fr/iphone-se-2020-64go-blanc?grade=5459,
,iPhone SE 2020,64 GB,White,B,https://swappie.com/nl/iphone/iphone-se-2020/iphone-se-2020-64gb-wit-24/,https://www.refurbed.de/p/iphone-se-2020/6227b/,https://www.backmarket.fr/iphone-se-2020-64-go-blanc-debloque-tout-operateur-pas-cher/347380.html#l=11,https://www.forza-refurbished.nl/se-2020/iphone-se-2020-64gb-white,https://www.refurbished.nl/iphone-se-2020/64gb-wit?spi=97155,https://www.recommerce.com/fr/iphone-se-2020-64go-blanc?grade=5456,
,iPhone SE 2020,64 GB,White,C,https://swappie.com/nl/iphone/iphone-se-2020/iphone-se-2020-64gb-wit-6/,https://www.refurbed.de/p/iphone-se-2020/6227c/,https://www.backmarket.fr/iphone-se-2020-64-go-blanc-debloque-tout-operateur-pas-cher/347380.html#l=12,https://www.forza-refurbished.nl/se-2020/iphone-se-2020-64gb-white,https://www.refurbished.nl/iphone-se-2020/64gb-wit?spi=97051,https://www.recommerce.com/fr/iphone-se-2020-64go-blanc?grade=5457,
,iPhone SE 2020,128 GB,White,A,https://swappie.com/nl/iphone/iphone-se-2020/iphone-se-2020-128gb-wit-27/,https://www.refurbed.de/p/iphone-se-2020/6228/,https://www.backmarket.fr/iphone-se-2020-128-go-blanc-debloque-tout-operateur-pas-cher/347184.html#l=10,https://www.forza-refurbished.nl/se-2020/iphone-se-2020-128gb-white,https://www.refurbished.nl/iphone-se-2020/128gb-wit?spi=73997,https://www.recommerce.com/fr/iphone-se-2020-128go-blanc?grade=5459,
,iPhone SE 2020,128 GB,White,B,https://swappie.com/nl/iphone/iphone-se-2020/iphone-se-2020-128gb-wit-9/,https://www.refurbed.de/p/iphone-se-2020/6228b/,https://www.backmarket.fr/iphone-se-2020-128-go-blanc-debloque-tout-operateur-pas-cher/347184.html#l=11,https://www.forza-refurbished.nl/se-2020/iphone-se-2020-128gb-white,https://www.refurbished.nl/iphone-se-2020/128gb-wit?spi=107897,https://www.recommerce.com/fr/iphone-se-2020-128go-blanc?grade=5456,
,iPhone SE 2020,128 GB,White,C,https://swappie.com/nl/iphone/iphone-se-2020/iphone-se-2020-128gb-wit-21/,https://www.refurbed.de/p/iphone-se-2020/6228c/,https://www.backmarket.fr/iphone-se-2020-128-go-blanc-debloque-tout-operateur-pas-cher/347184.html#l=12,https://www.forza-refurbished.nl/se-2020/iphone-se-2020-128gb-white,https://www.refurbished.nl/iphone-se-2020/128gb-wit?spi=83468,,
,iPhone SE 2020,256 GB,White,A,https://swappie.com/nl/iphone/iphone-se-2020/iphone-se-2020-256gb-wit-27/,https://www.refurbed.de/p/iphone-se-2020/6229/,https://www.backmarket.fr/iphone-se-2020-256-go-blanc-debloque-tout-operateur-pas-cher/347190.html#l=10,,https://www.refurbished.nl/iphone-se-2020/256gb-wit?spi=109559,https://www.recommerce.com/fr/iphone-se-2020-256go-blanc?grade=5459,
,iPhone SE 2020,256 GB,White,B,https://swappie.com/nl/iphone/iphone-se-2020/iphone-se-2020-256gb-wit-24/,https://www.refurbed.de/p/iphone-se-2020/6229b/,https://www.backmarket.fr/iphone-se-2020-256-go-blanc-debloque-tout-operateur-pas-cher/347190.html#l=11,,,,
,iPhone SE 2020,256 GB,White,C,,https://www.refurbed.de/p/iphone-se-2020/6229c/,https://www.backmarket.fr/iphone-se-2020-256-go-blanc-debloque-tout-operateur-pas-cher/347190.html#l=12,,,,
,iPhone SE 2020,64 GB,Red,A,https://swappie.com/nl/iphone/iphone-se-2020/iphone-se-2020-64gb-rood-12/,https://www.refurbed.de/p/iphone-se-2020/6224/,https://www.backmarket.fr/iphone-se-2020-64-go-productred-debloque-tout-operateur-pas-cher/347039.html#l=10,https://www.forza-refurbished.nl/se-2020/iphone-se-2020-64gb-red,https://www.refurbished.nl/iphone-se-2020/64gb-rood?spi=97244,https://www.recommerce.com/fr/iphone-se-2020-64go-rouge?grade=5459,
,iPhone SE 2020,64 GB,Red,B,https://swappie.com/nl/iphone/iphone-se-2020/iphone-se-2020-64gb-rood-24/,https://www.refurbed.de/p/iphone-se-2020/6224b/,https://www.backmarket.fr/iphone-se-2020-64-go-productred-debloque-tout-operateur-pas-cher/347039.html#l=11,https://www.forza-refurbished.nl/se-2020/iphone-se-2020-64gb-red,https://www.refurbished.nl/iphone-se-2020/64gb-rood?spi=96876,https://www.recommerce.com/fr/iphone-se-2020-64go-rouge?grade=5456,
,iPhone SE 2020,64 GB,Red,C,https://swappie.com/nl/iphone/iphone-se-2020/iphone-se-2020-64gb-rood-6/,https://www.refurbed.de/p/iphone-se-2020/6224c/,https://www.backmarket.fr/iphone-se-2020-64-go-productred-debloque-tout-operateur-pas-cher/347039.html#l=12,https://www.forza-refurbished.nl/se-2020/iphone-se-2020-64gb-red,https://www.refurbished.nl/iphone-se-2020/64gb-rood?spi=110737,https://www.recommerce.com/fr/iphone-se-2020-64go-rouge?grade=5457,
,iPhone SE 2020,128 GB,Red,A,https://swappie.com/nl/iphone/iphone-se-2020/iphone-se-2020-128gb-rood-27/,https://www.refurbed.de/p/iphone-se-2020/6225/,https://www.backmarket.fr/iphone-se-2020-128-go-productred-debloque-tout-operateur-pas-cher/347185.html#l=10,https://www.forza-refurbished.nl/se-2020/iphone-se-2020-128gb-red,https://www.refurbished.nl/iphone-se-2020/128gb-rood?spi=104222,https://www.recommerce.com/fr/iphone-se-2020-128go-rouge?grade=5459,
,iPhone SE 2020,128 GB,Red,B,https://swappie.com/nl/iphone/iphone-se-2020/iphone-se-2020-128gb-rood-24/,https://www.refurbed.de/p/iphone-se-2020/6225b/,https://www.backmarket.fr/iphone-se-2020-128-go-productred-debloque-tout-operateur-pas-cher/347185.html#l=11,https://www.forza-refurbished.nl/se-2020/iphone-se-2020-128gb-red,https://www.refurbished.nl/iphone-se-2020/128gb-rood?spi=111322,https://www.recommerce.com/fr/iphone-se-2020-128go-rouge?grade=5456,
,iPhone SE 2020,128 GB,Red,C,https://swappie.com/nl/iphone/iphone-se-2020/iphone-se-2020-128gb-rood-6/,https://www.refurbed.de/p/iphone-se-2020/6225c/,https://www.backmarket.fr/iphone-se-2020-128-go-productred-debloque-tout-operateur-pas-cher/347185.html#l=12,https://www.forza-refurbished.nl/se-2020/iphone-se-2020-128gb-red,https://www.refurbished.nl/iphone-se-2020/128gb-rood?spi=83540,,
,iPhone SE 2020,256 GB,Red,A,https://swappie.com/nl/iphone/iphone-se-2020/iphone-se-2020-256gb-rood-27/,https://www.refurbed.de/p/iphone-se-2020/6226/,https://www.backmarket.fr/iphone-se-2020-256-go-productred-debloque-tout-operateur-pas-cher/347194.html#l=10,,https://www.refurbished.nl/iphone-se-2020/256gb-rood?spi=111088,,
,iPhone SE 2020,256 GB,Red,B,https://swappie.com/nl/iphone/iphone-se-2020/iphone-se-2020-256gb-rood-24/,https://www.refurbed.de/p/iphone-se-2020/6226b/,https://www.backmarket.fr/iphone-se-2020-256-go-productred-debloque-tout-operateur-pas-cher/347194.html#l=11,,https://www.refurbished.nl/iphone-se-2020/256gb-rood?spi=111083,,
,iPhone SE 2020,256 GB,Red,C,https://swappie.com/nl/iphone/iphone-se-2020/iphone-se-2020-256gb-rood-21/,https://www.refurbed.de/p/iphone-se-2020/6226c/,https://www.backmarket.fr/iphone-se-2020-256-go-productred-debloque-tout-operateur-pas-cher/347194.html#l=12,,,,
,iPhone X,64 GB,Silver,A,https://swappie.com/nl/iphone/iphone-x/iphone-x-64gb-zilver-7/,https://www.refurbed.de/p/iphone-x/1089/,https://www.backmarket.fr/iphone-x-64-go-argent-debloque-tout-operateur-pas-cher/36835.html#l=10,https://www.forza-refurbished.nl/apple-iphone/x/iphone-x-64gb-silver,https://www.refurbished.nl/iphone-x/64gb-silver?spi=94963,https://www.recommerce.com/fr/iphone-x-64go-argent?grade=5459,
,iPhone X,64 GB,Silver,B,https://swappie.com/nl/iphone/iphone-x/iphone-x-64gb-zilver-6/,https://www.refurbed.de/p/iphone-x/1089b/,https://www.backmarket.fr/iphone-x-64-go-argent-debloque-tout-operateur-pas-cher/36835.html#l=11,https://www.forza-refurbished.nl/apple-iphone/x/iphone-x-64gb-silver,https://www.refurbished.nl/iphone-x/64gb-silver?spi=29356,https://www.recommerce.com/fr/iphone-x-64go-argent?grade=5456,
,iPhone X,64 GB,Silver,C,,https://www.refurbed.de/p/iphone-x/1089c/,https://www.backmarket.fr/iphone-x-64-go-argent-debloque-tout-operateur-pas-cher/36835.html#l=12,https://www.forza-refurbished.nl/apple-iphone/x/iphone-x-64gb-silver,,,
,iPhone X,256 GB,Silver,A,https://swappie.com/nl/iphone/iphone-x/iphone-x-256gb-zilver-7/,https://www.refurbed.de/p/iphone-x/940/,https://www.backmarket.fr/iphone-x-256-go-argent-debloque-tout-operateur-pas-cher/36836.html#l=10,https://www.forza-refurbished.nl/apple-iphone/x/iphone-x-256gb-silver,https://www.refurbished.nl/iphone-x/256gb-silver?spi=35389,https://www.recommerce.com/fr/iphone-x-256go-argent?grade=5459,
,iPhone X,256 GB,Silver,B,https://swappie.com/nl/iphone/iphone-x/iphone-x-256gb-zilver-2/,https://www.refurbed.de/p/iphone-x/940b/,https://www.backmarket.fr/iphone-x-256-go-argent-debloque-tout-operateur-pas-cher/36836.html#l=11,https://www.forza-refurbished.nl/apple-iphone/x/iphone-x-256gb-silver,https://www.refurbished.nl/iphone-x/256gb-silver?spi=111358,https://www.recommerce.com/fr/iphone-x-256go-argent?grade=5456,
,iPhone X,256 GB,Silver,C,https://swappie.com/nl/iphone/iphone-x/iphone-x-256gb-zilver-5/,https://www.refurbed.de/p/iphone-x/940c/,https://www.backmarket.fr/iphone-x-256-go-argent-debloque-tout-operateur-pas-cher/36836.html#l=12,https://www.forza-refurbished.nl/apple-iphone/x/iphone-x-256gb-silver,,,
,iPhone X,64 GB,Space Gray,A,https://swappie.com/nl/iphone/iphone-x/iphone-x-64gb-spacegrijs-7/,https://www.refurbed.de/p/iphone-x/1090/,https://www.backmarket.fr/iphone-x-64-go-gris-sideral-debloque-tout-operateur-pas-cher/36833.html#l=10,https://www.forza-refurbished.nl/apple-iphone/x/iphone-x-64gb-spacegray,https://www.refurbished.nl/iphone-x/64gb-space-grey?spi=29240,https://www.recommerce.com/fr/iphone-x-64go-gris-sideral?grade=5459,
,iPhone X,64 GB,Space Gray,B,https://swappie.com/nl/iphone/iphone-x/iphone-x-64gb-spacegrijs-6/,https://www.refurbed.de/p/iphone-x/1090b/,https://www.backmarket.fr/iphone-x-64-go-gris-sideral-debloque-tout-operateur-pas-cher/36833.html#l=11,https://www.forza-refurbished.nl/apple-iphone/x/iphone-x-64gb-spacegray,https://www.refurbished.nl/iphone-x/64gb-space-grey?spi=47558,https://www.recommerce.com/fr/iphone-x-64go-gris-sideral?grade=5456,
,iPhone X,64 GB,Space Gray,C,,https://www.refurbed.de/p/iphone-x/1090c/,https://www.backmarket.fr/iphone-x-64-go-gris-sideral-debloque-tout-operateur-pas-cher/36833.html#l=12,https://www.forza-refurbished.nl/apple-iphone/x/iphone-x-64gb-spacegray,,https://www.recommerce.com/fr/iphone-x-64go-gris-sideral?grade=5457,
,iPhone X,256 GB,Space Gray,A,https://swappie.com/nl/iphone/iphone-x/iphone-x-256gb-spacegrijs-7/,https://www.refurbed.de/p/iphone-x/941/,https://www.backmarket.fr/iphone-x-256-go-gris-sideral-debloque-tout-operateur-pas-cher/36834.html#l=10,https://www.forza-refurbished.nl/apple-iphone/x/iphone-x-256gb-spacegray,https://www.refurbished.nl/iphone-x/256gb-space-grey?spi=111357,https://www.recommerce.com/fr/iphone-x-256go-gris-sideral?grade=5459,
,iPhone X,256 GB,Space Gray,B,https://swappie.com/nl/iphone/iphone-x/iphone-x-256gb-spacegrijs-6/,https://www.refurbed.de/p/iphone-x/941b/,https://www.backmarket.fr/iphone-x-256-go-gris-sideral-debloque-tout-operateur-pas-cher/36834.html#l=11,https://www.forza-refurbished.nl/apple-iphone/x/iphone-x-256gb-spacegray,https://www.refurbished.nl/iphone-x/256gb-space-grey?spi=35392,https://www.recommerce.com/fr/iphone-x-256go-gris-sideral?grade=5456,
,iPhone X,256 GB,Space Gray,C,https://swappie.com/nl/iphone/iphone-x/iphone-x-256gb-spacegrijs/,https://www.refurbed.de/p/iphone-x/941c/,https://www.backmarket.fr/iphone-x-256-go-gris-sideral-debloque-tout-operateur-pas-cher/36834.html#l=12,https://www.forza-refurbished.nl/apple-iphone/x/iphone-x-256gb-spacegray,https://www.refurbished.nl/iphone-x/256gb-space-grey?spi=37406,,
,iPhone XS,64 GB,Gold,A,https://swappie.com/nl/iphone/iphone-xs/iphone-xs-64gb-goud-3/,https://www.refurbed.de/p/iphone-xs/2265/,https://www.backmarket.fr/iphone-xs-64-go-or-debloque-tout-operateur-pas-cher/175669.html#l=10,https://www.forza-refurbished.nl/apple-iphone/xs/iphone-xs-64gb-gold,https://www.refurbished.nl/iphone-xs/64gb-goud?spi=69503,https://www.recommerce.com/fr/iphone-xs-64go-or?grade=5459,
,iPhone XS,64 GB,Gold,B,https://swappie.com/nl/iphone/iphone-xs/iphone-xs-64gb-goud-6/,https://www.refurbed.de/p/iphone-xs/2265b/,https://www.backmarket.fr/iphone-xs-64-go-or-debloque-tout-operateur-pas-cher/175669.html#l=11,https://www.forza-refurbished.nl/apple-iphone/xs/iphone-xs-64gb-gold,https://www.refurbished.nl/iphone-xs/64gb-goud?spi=73894,https://www.recommerce.com/fr/iphone-xs-64go-or?grade=5456,
,iPhone XS,64 GB,Gold,C,,https://www.refurbed.de/p/iphone-xs/2265c/,https://www.backmarket.fr/iphone-xs-64-go-or-debloque-tout-operateur-pas-cher/175669.html#l=12,https://www.forza-refurbished.nl/apple-iphone/xs/iphone-xs-64gb-gold,,,
,iPhone XS,256 GB,Gold,A,,https://www.refurbed.de/p/iphone-xs/2268/,https://www.backmarket.fr/iphone-xs-256-go-or-debloque-tout-operateur-pas-cher/161655.html#l=10,https://www.forza-refurbished.nl/apple-iphone/xs/iphone-xs-256gb-gold,https://www.refurbished.nl/iphone-xs/256gb-goud?spi=97249,https://www.recommerce.com/fr/iphone-xs-256go-or?grade=5459,
,iPhone XS,256 GB,Gold,B,,https://www.refurbed.de/p/iphone-xs/2268b/,https://www.backmarket.fr/iphone-xs-256-go-or-debloque-tout-operateur-pas-cher/161655.html#l=11,https://www.forza-refurbished.nl/apple-iphone/xs/iphone-xs-256gb-gold,https://www.refurbished.nl/iphone-xs/256gb-goud?spi=64273,https://www.recommerce.com/fr/iphone-xs-256go-or?grade=5456,
,iPhone XS,256 GB,Gold,C,https://swappie.com/nl/iphone/iphone-xs/iphone-xs-256gb-goud/,https://www.refurbed.de/p/iphone-xs/2268c/,https://www.backmarket.fr/iphone-xs-256-go-or-debloque-tout-operateur-pas-cher/161655.html#l=12,https://www.forza-refurbished.nl/apple-iphone/xs/iphone-xs-256gb-gold,,,
,iPhone XS,512 GB,Gold,A,https://swappie.com/nl/iphone/iphone-xs/iphone-xs-512gb-goud-3/,https://www.refurbed.de/p/iphone-xs/2271/,https://www.backmarket.fr/iphone-xs-512-go-or-debloque-tout-operateur-pas-cher/226485.html#l=10,,https://www.refurbished.nl/iphone-xs/512gb-goud?spi=69509,https://www.recommerce.com/fr/iphone-xs-512go-or?grade=5459,
,iPhone XS,512 GB,Gold,B,https://swappie.com/nl/iphone/iphone-xs/iphone-xs-512gb-goud-2/,https://www.refurbed.de/p/iphone-xs/2271b/,https://www.backmarket.fr/iphone-xs-512-go-or-debloque-tout-operateur-pas-cher/226485.html#l=11,,,,
,iPhone XS,512 GB,Gold,C,https://swappie.com/nl/iphone/iphone-xs/iphone-xs-512gb-goud/,https://www.refurbed.de/p/iphone-xs/2271c/,https://www.backmarket.fr/iphone-xs-512-go-or-debloque-tout-operateur-pas-cher/226485.html#l=12,,,,
,iPhone XS,64 GB,Silver,A,https://swappie.com/nl/iphone/iphone-xs/iphone-xs-64gb-zilver-7/,https://www.refurbed.de/p/iphone-xs/2264/,https://www.backmarket.fr/iphone-xs-64-go-argent-debloque-tout-operateur-pas-cher/169106.html#l=10,https://www.forza-refurbished.nl/apple-iphone/xs/iphone-xs-64gb-silver,https://www.refurbished.nl/iphone-xs/64gb-silver?spi=69506,,
,iPhone XS,64 GB,Silver,B,,https://www.refurbed.de/p/iphone-xs/2264b/,https://www.backmarket.fr/iphone-xs-64-go-argent-debloque-tout-operateur-pas-cher/169106.html#l=11,https://www.forza-refurbished.nl/apple-iphone/xs/iphone-xs-64gb-silver,https://www.refurbished.nl/iphone-xs/64gb-silver?spi=69505,https://www.recommerce.com/fr/iphone-xs-64go-argent?grade=5456,
,iPhone XS,64 GB,Silver,C,,https://www.refurbed.de/p/iphone-xs/2264c/,https://www.backmarket.fr/iphone-xs-64-go-argent-debloque-tout-operateur-pas-cher/169106.html#l=12,https://www.forza-refurbished.nl/apple-iphone/xs/iphone-xs-64gb-silver,,,
,iPhone XS,256 GB,Silver,A,https://swappie.com/nl/iphone/iphone-xs/iphone-xs-256gb-zilver-7/,https://www.refurbed.de/p/iphone-xs/2267/,https://www.backmarket.fr/iphone-xs-256-go-argent-debloque-tout-operateur-pas-cher/161654.html#l=10,https://www.forza-refurbished.nl/apple-iphone/xs/iphone-xs-256gb-silver,https://www.refurbished.nl/iphone-xs/256gb-silver?spi=102770,https://www.recommerce.com/fr/iphone-xs-256go-argent?grade=5459,
,iPhone XS,256 GB,Silver,B,,https://www.refurbed.de/p/iphone-xs/2267b/,https://www.backmarket.fr/iphone-xs-256-go-argent-debloque-tout-operateur-pas-cher/161654.html#l=11,https://www.forza-refurbished.nl/apple-iphone/xs/iphone-xs-256gb-silver,https://www.refurbished.nl/iphone-xs/256gb-silver?spi=111509,https://www.recommerce.com/fr/iphone-xs-256go-argent?grade=5456,
,iPhone XS,256 GB,Silver,C,,https://www.refurbed.de/p/iphone-xs/2267c/,https://www.backmarket.fr/iphone-xs-256-go-argent-debloque-tout-operateur-pas-cher/161654.html#l=12,https://www.forza-refurbished.nl/apple-iphone/xs/iphone-xs-256gb-silver,,https://www.recommerce.com/fr/iphone-xs-256go-argent?grade=5457,
,iPhone XS,512 GB,Silver,A,,https://www.refurbed.de/p/iphone-xs/2270/,https://www.backmarket.fr/iphone-xs-512-go-argent-debloque-tout-operateur-pas-cher/161656.html#l=10,,https://www.refurbished.nl/iphone-xs/512gb-silver?spi=104413,https://www.recommerce.com/fr/iphone-xs-512go-argent?grade=5459,
,iPhone XS,512 GB,Silver,B,https://swappie.com/nl/iphone/iphone-xs/iphone-xs-512gb-zilver-6/,https://www.refurbed.de/p/iphone-xs/2270b/,https://www.backmarket.fr/iphone-xs-512-go-argent-debloque-tout-operateur-pas-cher/161656.html#l=11,,https://www.refurbished.nl/iphone-xs/512gb-silver?spi=110880,,
,iPhone XS,512 GB,Silver,C,https://swappie.com/nl/iphone/iphone-xs/iphone-xs-512gb-zilver/,https://www.refurbed.de/p/iphone-xs/2270c/,https://www.backmarket.fr/iphone-xs-512-go-argent-debloque-tout-operateur-pas-cher/161656.html#l=12,,,,
,iPhone XS,64 GB,Space Gray,A,https://swappie.com/nl/iphone/iphone-xs/iphone-xs-64gb-spacegrijs-3/,https://www.refurbed.de/p/iphone-xs/2263/,https://www.backmarket.fr/iphone-xs-64-go-gris-sideral-debloque-tout-operateur-pas-cher/178592.html#l=10,https://www.forza-refurbished.nl/apple-iphone/xs/iphone-xs-64gb-spacegray,https://www.refurbished.nl/iphone-xs/64gb-space-grey?spi=101662,https://www.recommerce.com/fr/iphone-xs-64go-gris-sideral?grade=5459,
,iPhone XS,64 GB,Space Gray,B,https://swappie.com/nl/iphone/iphone-xs/iphone-xs-64gb-spacegrijs-6/,https://www.refurbed.de/p/iphone-xs/2263b/,https://www.backmarket.fr/iphone-xs-64-go-gris-sideral-debloque-tout-operateur-pas-cher/178592.html#l=11,https://www.forza-refurbished.nl/apple-iphone/xs/iphone-xs-64gb-spacegray,https://www.refurbished.nl/iphone-xs/64gb-space-grey?spi=69508,https://www.recommerce.com/fr/iphone-xs-64go-gris-sideral?grade=5456,
,iPhone XS,64 GB,Space Gray,C,https://swappie.com/nl/iphone/iphone-xs/iphone-xs-64gb-spacegrijs-5/,https://www.refurbed.de/p/iphone-xs/2263c/,https://www.backmarket.fr/iphone-xs-64-go-gris-sideral-debloque-tout-operateur-pas-cher/178592.html#l=12,https://www.forza-refurbished.nl/apple-iphone/xs/iphone-xs-64gb-spacegray,https://www.refurbished.nl/iphone-xs/64gb-space-grey?spi=70283,https://www.recommerce.com/fr/iphone-xs-64go-gris-sideral?grade=5457,
,iPhone XS,256 GB,Space Gray,A,https://swappie.com/nl/iphone/iphone-xs/iphone-xs-256gb-spacegrijs-7/,https://www.refurbed.de/p/iphone-xs/2266/,https://www.backmarket.fr/iphone-xs-256-go-gris-sideral-debloque-tout-operateur-pas-cher/161653.html#l=10,https://www.forza-refurbished.nl/apple-iphone/xs/iphone-xs-256gb-spacegray,https://www.refurbished.nl/iphone-xs/256gb-space-grey?spi=39689,https://www.recommerce.com/fr/iphone-xs-256go-gris-sideral?grade=5459,
,iPhone XS,256 GB,Space Gray,B,https://swappie.com/nl/iphone/iphone-xs/iphone-xs-256gb-spacegrijs-2/,https://www.refurbed.de/p/iphone-xs/2266b/,https://www.backmarket.fr/iphone-xs-256-go-gris-sideral-debloque-tout-operateur-pas-cher/161653.html#l=11,https://www.forza-refurbished.nl/apple-iphone/xs/iphone-xs-256gb-spacegray,https://www.refurbished.nl/iphone-xs/256gb-space-grey?spi=46086,https://www.recommerce.com/fr/iphone-xs-256go-gris-sideral?grade=5456,
,iPhone XS,256 GB,Space Gray,C,https://swappie.com/nl/iphone/iphone-xs/iphone-xs-256gb-spacegrijs/,https://www.refurbed.de/p/iphone-xs/2266c/,https://www.backmarket.fr/iphone-xs-256-go-gris-sideral-debloque-tout-operateur-pas-cher/161653.html#l=12,https://www.forza-refurbished.nl/apple-iphone/xs/iphone-xs-256gb-spacegray,https://www.refurbished.nl/iphone-xs/256gb-space-grey?spi=111607,,
,iPhone XS,512 GB,Space Gray,A,https://swappie.com/nl/iphone/iphone-xs/iphone-xs-512gb-spacegrijs-7/,https://www.refurbed.de/p/iphone-xs/2269/,https://www.backmarket.fr/iphone-xs-512-go-gris-sideral-debloque-tout-operateur-pas-cher/172770.html#l=10,,https://www.refurbished.nl/iphone-xs/512gb-space-grey?spi=102771,,
,iPhone XS,512 GB,Space Gray,B,https://swappie.com/nl/iphone/iphone-xs/iphone-xs-512gb-spacegrijs-6/,https://www.refurbed.de/p/iphone-xs/2269b/,https://www.backmarket.fr/iphone-xs-512-go-gris-sideral-debloque-tout-operateur-pas-cher/172770.html#l=11,,https://www.refurbished.nl/iphone-xs/512gb-space-grey?spi=94574,https://www.recommerce.com/fr/iphone-xs-512go-gris-sideral?grade=5456,
,iPhone XS,512 GB,Space Gray,C,https://swappie.com/nl/iphone/iphone-xs/iphone-xs-512gb-spacegrijs-5/,https://www.refurbed.de/p/iphone-xs/2269c/,https://www.backmarket.fr/iphone-xs-512-go-gris-sideral-debloque-tout-operateur-pas-cher/172770.html#l=12,,,,
,iPhone XR,64 GB,Black,A,https://swappie.com/nl/iphone/iphone-xr/iphone-xr-64gb-zwart-3/,https://www.refurbed.de/p/iphone-xr/2680/,https://www.backmarket.fr/iphone-xr-64-go-noir-debloque-tout-operateur-pas-cher/161659.html#l=10,https://www.forza-refurbished.nl/apple-iphone/xr/iphone-xr-64gb-black,https://www.refurbished.nl/iphone-xr/64gb-zwart?spi=110933,https://www.recommerce.com/fr/iphone-xr-64go-noir?grade=5459,
,iPhone XR,64 GB,Black,B,https://swappie.com/nl/iphone/iphone-xr/iphone-xr-64gb-zwart-6/,https://www.refurbed.de/p/iphone-xr/2680b/,https://www.backmarket.fr/iphone-xr-64-go-noir-debloque-tout-operateur-pas-cher/161659.html#l=11,https://www.forza-refurbished.nl/apple-iphone/xr/iphone-xr-64gb-black,https://www.refurbished.nl/iphone-xr/64gb-zwart?spi=38823,https://www.recommerce.com/fr/iphone-xr-64go-noir?grade=5456,
,iPhone XR,64 GB,Black,C,https://swappie.com/nl/iphone/iphone-xr/iphone-xr-64gb-zwart/,https://www.refurbed.de/p/iphone-xr/2680c/,https://www.backmarket.fr/iphone-xr-64-go-noir-debloque-tout-operateur-pas-cher/161659.html#l=12,https://www.forza-refurbished.nl/apple-iphone/xr/iphone-xr-64gb-black,,,
,iPhone XR,128 GB,Black,A,,https://www.refurbed.de/p/iphone-xr/2681/,https://www.backmarket.fr/iphone-xr-128-go-noir-debloque-tout-operateur-pas-cher/199289.html#l=10,https://www.forza-refurbished.nl/apple-iphone/xr/iphone-xr-128gb-zwart,https://www.refurbished.nl/iphone-xr/128gb-zwart?spi=94453,,
,iPhone XR,128 GB,Black,B,,https://www.refurbed.de/p/iphone-xr/2681b/,https://www.backmarket.fr/iphone-xr-128-go-noir-debloque-tout-operateur-pas-cher/199289.html#l=11,https://www.forza-refurbished.nl/apple-iphone/xr/iphone-xr-128gb-zwart,https://www.refurbished.nl/iphone-xr/128gb-zwart?spi=94454,,
,iPhone XR,128 GB,Black,C,https://swappie.com/nl/iphone/iphone-xr/iphone-xr-128gb-zwart-5/,https://www.refurbed.de/p/iphone-xr/2681c/,https://www.backmarket.fr/iphone-xr-128-go-noir-debloque-tout-operateur-pas-cher/199289.html#l=12,https://www.forza-refurbished.nl/apple-iphone/xr/iphone-xr-128gb-zwart,https://www.refurbished.nl/iphone-xr/128gb-zwart?spi=102152,,
,iPhone XR,256 GB,Black,A,,https://www.refurbed.de/p/iphone-xr/2682/,https://www.backmarket.fr/iphone-xr-256-go-noir-debloque-tout-operateur-pas-cher/161670.html#l=10,,https://www.refurbished.nl/iphone-xr/256gb-zwart?spi=73949,https://www.recommerce.com/fr/iphone-xr-256go-noir?grade=5459,
,iPhone XR,256 GB,Black,B,https://swappie.com/nl/iphone/iphone-xr/iphone-xr-256gb-zwart-6/,https://www.refurbed.de/p/iphone-xr/2682b/,https://www.backmarket.fr/iphone-xr-256-go-noir-debloque-tout-operateur-pas-cher/161670.html#l=11,,https://www.refurbished.nl/iphone-xr/256gb-zwart?spi=111023,https://www.recommerce.com/fr/iphone-xr-256go-noir?grade=5456,
,iPhone XR,256 GB,Black,C,https://swappie.com/nl/iphone/iphone-xr/iphone-xr-256gb-zwart-5/,https://www.refurbed.de/p/iphone-xr/2682c/,https://www.backmarket.fr/iphone-xr-256-go-noir-debloque-tout-operateur-pas-cher/161670.html#l=12,,,,
,iPhone XR,64 GB,Blue,A,https://swappie.com/nl/iphone/iphone-xr/iphone-xr-64gb-blauw-3/,https://www.refurbed.de/p/iphone-xr/2683/,https://www.backmarket.fr/iphone-xr-64-go-bleu-debloque-tout-operateur-pas-cher/213077.html#l=10,https://www.forza-refurbished.nl/apple-iphone/xr/iphone-xr-64gb-blue,https://www.refurbished.nl/iphone-xr/64gb-blauw?spi=79333,https://www.recommerce.com/fr/iphone-xr-64go-bleu?grade=5459,
,iPhone XR,64 GB,Blue,B,,https://www.refurbed.de/p/iphone-xr/2683b/,https://www.backmarket.fr/iphone-xr-64-go-bleu-debloque-tout-operateur-pas-cher/213077.html#l=11,https://www.forza-refurbished.nl/apple-iphone/xr/iphone-xr-64gb-blue,https://www.refurbished.nl/iphone-xr/64gb-blauw?spi=92254,https://www.recommerce.com/fr/iphone-xr-64go-bleu?grade=5456,
,iPhone XR,64 GB,Blue,C,,https://www.refurbed.de/p/iphone-xr/2683c/,https://www.backmarket.fr/iphone-xr-64-go-bleu-debloque-tout-operateur-pas-cher/213077.html#l=12,https://www.forza-refurbished.nl/apple-iphone/xr/iphone-xr-64gb-blue,https://www.refurbished.nl/iphone-xr/64gb-blauw?spi=79332,https://www.recommerce.com/fr/iphone-xr-64go-bleu?grade=5457,
,iPhone XR,128 GB,Blue,A,https://swappie.com/nl/iphone/iphone-xr/iphone-xr-128gb-blauw-7/,https://www.refurbed.de/p/iphone-xr/2684/,https://www.backmarket.fr/iphone-xr-128-go-bleu-debloque-tout-operateur-pas-cher/161666.html#l=10,https://www.forza-refurbished.nl/apple-iphone/xr/iphone-xr-128gb-blauw,https://www.refurbished.nl/iphone-xr/128gb-blauw?spi=104154,https://www.recommerce.com/fr/iphone-xr-128go-bleu?grade=5459,
,iPhone XR,128 GB,Blue,B,https://swappie.com/nl/iphone/iphone-xr/iphone-xr-128gb-blauw-6/,https://www.refurbed.de/p/iphone-xr/2684b/,https://www.backmarket.fr/iphone-xr-128-go-bleu-debloque-tout-operateur-pas-cher/161666.html#l=11,https://www.forza-refurbished.nl/apple-iphone/xr/iphone-xr-128gb-blauw,https://www.refurbished.nl/iphone-xr/128gb-blauw?spi=94600,https://www.recommerce.com/fr/iphone-xr-128go-bleu?grade=5456,
,iPhone XR,128 GB,Blue,C,https://swappie.com/nl/iphone/iphone-xr/iphone-xr-128gb-blauw-5/,https://www.refurbed.de/p/iphone-xr/2684c/,https://www.backmarket.fr/iphone-xr-128-go-bleu-debloque-tout-operateur-pas-cher/161666.html#l=12,https://www.forza-refurbished.nl/apple-iphone/xr/iphone-xr-128gb-blauw,,,
,iPhone XR,256 GB,Blue,A,,https://www.refurbed.de/p/iphone-xr/2685/,https://www.backmarket.fr/iphone-xr-256-go-bleu-debloque-tout-operateur-pas-cher/194721.html#l=10,,https://www.refurbished.nl/iphone-xr/256gb-blauw?spi=109876,,
,iPhone XR,256 GB,Blue,B,,https://www.refurbed.de/p/iphone-xr/2685b/,https://www.backmarket.fr/iphone-xr-256-go-bleu-debloque-tout-operateur-pas-cher/194721.html#l=11,,,,
,iPhone XR,256 GB,Blue,C,https://swappie.com/nl/iphone/iphone-xr/iphone-xr-256gb-blauw/,https://www.refurbed.de/p/iphone-xr/2685c/,https://www.backmarket.fr/iphone-xr-256-go-bleu-debloque-tout-operateur-pas-cher/194721.html#l=12,,https://www.refurbished.nl/iphone-xr/256gb-blauw?spi=104612,,
,iPhone XR,64 GB,Coral,A,,https://www.refurbed.de/p/iphone-xr/2695/,https://www.backmarket.fr/iphone-xr-64-go-corail-debloque-tout-operateur-pas-cher/161661.html#l=10,https://www.forza-refurbished.nl/apple-iphone/xr/iphone-xr-64gb-coral,https://www.refurbished.nl/iphone-xr/64gb-roze?spi=99626,https://www.recommerce.com/fr/iphone-xr-64go-orange?grade=5459,
,iPhone XR,64 GB,Coral,B,,https://www.refurbed.de/p/iphone-xr/2695b/,https://www.backmarket.fr/iphone-xr-64-go-corail-debloque-tout-operateur-pas-cher/161661.html#l=11,https://www.forza-refurbished.nl/apple-iphone/xr/iphone-xr-64gb-coral,https://www.refurbished.nl/iphone-xr/64gb-roze?spi=92014,https://www.recommerce.com/fr/iphone-xr-64go-orange?grade=5456,
,iPhone XR,64 GB,Coral,C,,https://www.refurbed.de/p/iphone-xr/2695c/,https://www.backmarket.fr/iphone-xr-64-go-corail-debloque-tout-operateur-pas-cher/161661.html#l=12,https://www.forza-refurbished.nl/apple-iphone/xr/iphone-xr-64gb-coral,,https://www.recommerce.com/fr/iphone-xr-64go-orange?grade=5457,
,iPhone XR,128 GB,Coral,A,https://swappie.com/nl/iphone/iphone-xr/iphone-xr-128gb-koraal-3/,https://www.refurbed.de/p/iphone-xr/2696/,https://www.backmarket.fr/iphone-xr-128-go-corail-debloque-tout-operateur-pas-cher/199320.html#l=10,https://www.forza-refurbished.nl/apple-iphone/xr/iphone-xr-128gb-koraal,https://www.refurbished.nl/iphone-xr/128gb-roze?spi=97247,https://www.recommerce.com/fr/iphone-xr-128go-orange?grade=5459,
,iPhone XR,128 GB,Coral,B,https://swappie.com/nl/iphone/iphone-xr/iphone-xr-128gb-koraal-6/,https://www.refurbed.de/p/iphone-xr/2696b/,https://www.backmarket.fr/iphone-xr-128-go-corail-debloque-tout-operateur-pas-cher/199320.html#l=11,https://www.forza-refurbished.nl/apple-iphone/xr/iphone-xr-128gb-koraal,https://www.refurbished.nl/iphone-xr/128gb-roze?spi=101153,https://www.recommerce.com/fr/iphone-xr-128go-orange?grade=5456,
,iPhone XR,128 GB,Coral,C,https://swappie.com/nl/iphone/iphone-xr/iphone-xr-128gb-koraal-5/,https://www.refurbed.de/p/iphone-xr/2696c/,https://www.backmarket.fr/iphone-xr-128-go-corail-debloque-tout-operateur-pas-cher/199320.html#l=12,https://www.forza-refurbished.nl/apple-iphone/xr/iphone-xr-128gb-koraal,https://www.refurbished.nl/iphone-xr/128gb-roze?spi=111014,,
,iPhone XR,256 GB,Coral,A,,https://www.refurbed.de/p/iphone-xr/2697/,https://www.backmarket.fr/iphone-xr-256-go-corail-debloque-tout-operateur-pas-cher/252564.html#l=10,,https://www.refurbished.nl/iphone-xr/256gb-roze?spi=106883,,
,iPhone XR,256 GB,Coral,B,https://swappie.com/nl/iphone/iphone-xr/iphone-xr-256gb-koraal-6/,https://www.refurbed.de/p/iphone-xr/2697b/,https://www.backmarket.fr/iphone-xr-256-go-corail-debloque-tout-operateur-pas-cher/252564.html#l=11,,,,
,iPhone XR,256 GB,Coral,C,,https://www.refurbed.de/p/iphone-xr/2697c/,https://www.backmarket.fr/iphone-xr-256-go-corail-debloque-tout-operateur-pas-cher/252564.html#l=12,,,,
,iPhone XR,64 GB,Red,A,https://swappie.com/nl/iphone/iphone-xr/iphone-xr-64gb-rood-7/,https://www.refurbed.de/p/iphone-xr/2689/,https://www.backmarket.fr/iphone-xr-64-go-productred-debloque-tout-operateur-pas-cher/205401.html#l=10,https://www.forza-refurbished.nl/apple-iphone/xr/iphone-xr-64gb-red,https://www.refurbished.nl/iphone-xr/64gb-rood?spi=101774,https://www.recommerce.com/fr/iphone-xr-64go-rouge?grade=5459,
,iPhone XR,64 GB,Red,B,https://swappie.com/nl/iphone/iphone-xr/iphone-xr-64gb-rood-6/,https://www.refurbed.de/p/iphone-xr/2689b/,https://www.backmarket.fr/iphone-xr-64-go-productred-debloque-tout-operateur-pas-cher/205401.html#l=11,https://www.forza-refurbished.nl/apple-iphone/xr/iphone-xr-64gb-red,https://www.refurbished.nl/iphone-xr/64gb-rood?spi=82487,https://www.recommerce.com/fr/iphone-xr-64go-rouge?grade=5456,
,iPhone XR,64 GB,Red,C,,https://www.refurbed.de/p/iphone-xr/2689c/,https://www.backmarket.fr/iphone-xr-64-go-productred-debloque-tout-operateur-pas-cher/205401.html#l=12,https://www.forza-refurbished.nl/apple-iphone/xr/iphone-xr-64gb-red,https://www.refurbished.nl/iphone-xr/64gb-rood?spi=111091,https://www.recommerce.com/fr/iphone-xr-64go-rouge?grade=5457,
,iPhone XR,128 GB,Red,A,https://swappie.com/nl/iphone/iphone-xr/iphone-xr-128gb-rood-7/,https://www.refurbed.de/p/iphone-xr/2690/,https://www.backmarket.fr/iphone-xr-128-go-productred-debloque-tout-operateur-pas-cher/234364.html#l=10,https://www.forza-refurbished.nl/apple-iphone/xr/iphone-xr-128gb-rood,https://www.refurbished.nl/iphone-xr/128gb-rood?spi=102144,https://www.recommerce.com/fr/iphone-xr-128go-rouge?grade=5459,
,iPhone XR,128 GB,Red,B,https://swappie.com/nl/iphone/iphone-xr/iphone-xr-128gb-rood-6/,https://www.refurbed.de/p/iphone-xr/2690b/,https://www.backmarket.fr/iphone-xr-128-go-productred-debloque-tout-operateur-pas-cher/234364.html#l=11,https://www.forza-refurbished.nl/apple-iphone/xr/iphone-xr-128gb-rood,https://www.refurbished.nl/iphone-xr/128gb-rood?spi=94256,https://www.recommerce.com/fr/iphone-xr-128go-rouge?grade=5456,
,iPhone XR,128 GB,Red,C,https://swappie.com/nl/iphone/iphone-xr/iphone-xr-128gb-rood-5/,https://www.refurbed.de/p/iphone-xr/2690c/,https://www.backmarket.fr/iphone-xr-128-go-productred-debloque-tout-operateur-pas-cher/234364.html#l=12,https://www.forza-refurbished.nl/apple-iphone/xr/iphone-xr-128gb-rood,,,
,iPhone XR,256 GB,Red,A,https://swappie.com/nl/iphone/iphone-xr/iphone-xr-256gb-rood-3/,https://www.refurbed.de/p/iphone-xr/2691/,https://www.backmarket.fr/iphone-xr-256-go-productred-debloque-tout-operateur-pas-cher/240091.html#l=10,,https://www.refurbished.nl/iphone-xr/256gb-rood?spi=102769,https://www.recommerce.com/fr/iphone-xr-256go-rouge?grade=5459,
,iPhone XR,256 GB,Red,B,https://swappie.com/nl/iphone/iphone-xr/iphone-xr-256gb-rood-2/,https://www.refurbed.de/p/iphone-xr/2691b/,https://www.backmarket.fr/iphone-xr-256-go-productred-debloque-tout-operateur-pas-cher/240091.html#l=11,,,https://www.recommerce.com/fr/iphone-xr-256go-rouge?grade=5456,
,iPhone XR,256 GB,Red,C,https://swappie.com/nl/iphone/iphone-xr/iphone-xr-256gb-rood-5/,https://www.refurbed.de/p/iphone-xr/2691c/,https://www.backmarket.fr/iphone-xr-256-go-productred-debloque-tout-operateur-pas-cher/240091.html#l=12,,,,
,iPhone XR,64 GB,White,A,https://swappie.com/nl/iphone/iphone-xr/iphone-xr-64gb-wit-7/,https://www.refurbed.de/p/iphone-xr/2686/,https://www.backmarket.fr/iphone-xr-64-go-blanc-debloque-tout-operateur-pas-cher/189925.html#l=10,https://www.forza-refurbished.nl/apple-iphone/xr/iphone-xr-64gb-white,https://www.refurbished.nl/iphone-xr/64gb-wit?spi=100292,https://www.recommerce.com/fr/iphone-xr-64go-blanc?grade=5459,
,iPhone XR,64 GB,White,B,https://swappie.com/nl/iphone/iphone-xr/iphone-xr-64gb-wit-6/,https://www.refurbed.de/p/iphone-xr/2686b/,https://www.backmarket.fr/iphone-xr-64-go-blanc-debloque-tout-operateur-pas-cher/189925.html#l=11,https://www.forza-refurbished.nl/apple-iphone/xr/iphone-xr-64gb-white,https://www.refurbished.nl/iphone-xr/64gb-wit?spi=82497,https://www.recommerce.com/fr/iphone-xr-64go-blanc?grade=5456,
,iPhone XR,64 GB,White,C,,https://www.refurbed.de/p/iphone-xr/2686c/,https://www.backmarket.fr/iphone-xr-64-go-blanc-debloque-tout-operateur-pas-cher/189925.html#l=12,https://www.forza-refurbished.nl/apple-iphone/xr/iphone-xr-64gb-white,,https://www.recommerce.com/fr/iphone-xr-64go-blanc?grade=5457,
,iPhone XR,128 GB,White,A,https://swappie.com/nl/iphone/iphone-xr/iphone-xr-128gb-wit-7/,https://www.refurbed.de/p/iphone-xr/2687/,https://www.backmarket.fr/iphone-xr-128-go-blanc-debloque-tout-operateur-pas-cher/198831.html#l=10,https://www.forza-refurbished.nl/apple-iphone/xr/iphone-xr-128gb-wit,https://www.refurbished.nl/iphone-xr/128gb-wit?spi=102143,https://www.recommerce.com/fr/iphone-xr-128go-blanc?grade=5459,
,iPhone XR,128 GB,White,B,,https://www.refurbed.de/p/iphone-xr/2687b/,https://www.backmarket.fr/iphone-xr-128-go-blanc-debloque-tout-operateur-pas-cher/198831.html#l=11,https://www.forza-refurbished.nl/apple-iphone/xr/iphone-xr-128gb-wit,https://www.refurbished.nl/iphone-xr/128gb-wit?spi=63489,https://www.recommerce.com/fr/iphone-xr-128go-blanc?grade=5456,
,iPhone XR,128 GB,White,C,,https://www.refurbed.de/p/iphone-xr/2687c/,https://www.backmarket.fr/iphone-xr-128-go-blanc-debloque-tout-operateur-pas-cher/198831.html#l=12,https://www.forza-refurbished.nl/apple-iphone/xr/iphone-xr-128gb-wit,https://www.refurbished.nl/iphone-xr/128gb-wit?spi=102153,,
,iPhone XR,256 GB,White,A,,https://www.refurbed.de/p/iphone-xr/2688/,https://www.backmarket.fr/iphone-xr-256-go-blanc-debloque-tout-operateur-pas-cher/193116.html#l=10,,,https://www.recommerce.com/fr/iphone-xr-256go-blanc?grade=5459,
,iPhone XR,256 GB,White,B,https://swappie.com/nl/iphone/iphone-xr/iphone-xr-256gb-wit-2/,https://www.refurbed.de/p/iphone-xr/2688b/,https://www.backmarket.fr/iphone-xr-256-go-blanc-debloque-tout-operateur-pas-cher/193116.html#l=11,,,,
,iPhone XR,256 GB,White,C,,https://www.refurbed.de/p/iphone-xr/2688c/,https://www.backmarket.fr/iphone-xr-256-go-blanc-debloque-tout-operateur-pas-cher/193116.html#l=12,,,https://www.recommerce.com/fr/iphone-xr-256go-blanc?grade=5457,
,iPhone XR,64 GB,Yellow,A,https://swappie.com/nl/iphone/iphone-xr/iphone-xr-64gb-geel-3/,https://www.refurbed.de/p/iphone-xr/2692/,https://www.backmarket.fr/iphone-xr-64-go-jaune-debloque-tout-operateur-pas-cher/240744.html#l=10,https://www.forza-refurbished.nl/apple-iphone/xr/iphone-xr-64gb-yellow,https://www.refurbished.nl/iphone-xr/64gb-geel?spi=107117,https://www.recommerce.com/fr/iphone-xr-64go-jaune?grade=5459,
,iPhone XR,64 GB,Yellow,B,,https://www.refurbed.de/p/iphone-xr/2692b/,https://www.backmarket.fr/iphone-xr-64-go-jaune-debloque-tout-operateur-pas-cher/240744.html#l=11,https://www.forza-refurbished.nl/apple-iphone/xr/iphone-xr-64gb-yellow,https://www.refurbished.nl/iphone-xr/64gb-geel?spi=111323,https://www.recommerce.com/fr/iphone-xr-64go-jaune?grade=5456,
,iPhone XR,64 GB,Yellow,C,,https://www.refurbed.de/p/iphone-xr/2692c/,https://www.backmarket.fr/iphone-xr-64-go-jaune-debloque-tout-operateur-pas-cher/240744.html#l=12,https://www.forza-refurbished.nl/apple-iphone/xr/iphone-xr-64gb-yellow,,,
,iPhone XR,128 GB,Yellow,A,https://swappie.com/nl/iphone/iphone-xr/iphone-xr-128gb-geel-3/,https://www.refurbed.de/p/iphone-xr/2693/,https://www.backmarket.fr/iphone-xr-128-go-jaune-debloque-tout-operateur-pas-cher/161669.html#l=10,https://www.forza-refurbished.nl/apple-iphone/xr/iphone-xr-128gb-geel,https://www.refurbished.nl/iphone-xr/128gb-geel?spi=107127,,
,iPhone XR,128 GB,Yellow,B,,https://www.refurbed.de/p/iphone-xr/2693b/,https://www.backmarket.fr/iphone-xr-128-go-jaune-debloque-tout-operateur-pas-cher/161669.html#l=11,https://www.forza-refurbished.nl/apple-iphone/xr/iphone-xr-128gb-geel,https://www.refurbished.nl/iphone-xr/128gb-geel?spi=81646,https://www.recommerce.com/fr/iphone-xr-128go-jaune?grade=5456,
,iPhone XR,128 GB,Yellow,C,,https://www.refurbed.de/p/iphone-xr/2693c/,https://www.backmarket.fr/iphone-xr-128-go-jaune-debloque-tout-operateur-pas-cher/161669.html#l=12,https://www.forza-refurbished.nl/apple-iphone/xr/iphone-xr-128gb-geel,,,
,iPhone XR,256 GB,Yellow,A,https://swappie.com/nl/iphone/iphone-xr/iphone-xr-256gb-geel-3/,https://www.refurbed.de/p/iphone-xr/2694/,https://www.backmarket.fr/iphone-xr-256-go-jaune-debloque-tout-operateur-pas-cher/250558.html#l=10,,https://www.refurbished.nl/iphone-xr/256gb-geel?spi=92983,,
,iPhone XR,256 GB,Yellow,B,https://swappie.com/nl/iphone/iphone-xr/iphone-xr-256gb-geel-2/,https://www.refurbed.de/p/iphone-xr/2694b/,https://www.backmarket.fr/iphone-xr-256-go-jaune-debloque-tout-operateur-pas-cher/250558.html#l=11,,,https://www.recommerce.com/fr/iphone-xr-256go-jaune?grade=5456,
,iPhone XR,256 GB,Yellow,C,https://swappie.com/nl/iphone/iphone-xr/iphone-xr-256gb-geel/,https://www.refurbed.de/p/iphone-xr/2694c/,https://www.backmarket.fr/iphone-xr-256-go-jaune-debloque-tout-operateur-pas-cher/250558.html#l=12,,,,
,iPhone 11,64 GB,Black,A,https://swappie.com/nl/iphone/iphone-11/iphone-11-64gb-zwart-6/,https://www.refurbed.de/p/iphone-11/4781/,https://www.backmarket.fr/iphone-11-64-go-noir-debloque-tout-operateur-pas-cher/290057.html#l=10,https://www.forza-refurbished.nl/apple-iphone/11/iphone-11-64gb-black,https://www.refurbished.nl/iphone-11/64gb-zwart?spi=101776,https://www.recommerce.com/fr/iphone-11-64go-noir?grade=5459,"https://www.apple.com/nl/shop/buy-iphone/iphone-11/6,1%E2%80%91inch-display-64gb-zwart"
,iPhone 11,64 GB,Black,B,https://swappie.com/nl/iphone/iphone-11/iphone-11-64gb-zwart-3/,https://www.refurbed.de/p/iphone-11/4781b/,https://www.backmarket.fr/iphone-11-64-go-noir-debloque-tout-operateur-pas-cher/290057.html#l=11,https://www.forza-refurbished.nl/apple-iphone/11/iphone-11-64gb-black,https://www.refurbished.nl/iphone-11/64gb-zwart?spi=74551,https://www.recommerce.com/fr/iphone-11-64go-noir?grade=5456,
,iPhone 11,64 GB,Black,C,https://swappie.com/nl/iphone/iphone-11/iphone-11-64gb-zwart-8/,https://www.refurbed.de/p/iphone-11/4781c/,https://www.backmarket.fr/iphone-11-64-go-noir-debloque-tout-operateur-pas-cher/290057.html#l=12,https://www.forza-refurbished.nl/apple-iphone/11/iphone-11-64gb-black,https://www.refurbished.nl/iphone-11/64gb-zwart?spi=97238,https://www.recommerce.com/fr/iphone-11-64go-noir?grade=5457,
,iPhone 11,128 GB,Black,A,,https://www.refurbed.de/p/iphone-11/4791/,https://www.backmarket.fr/iphone-11-128-go-noir-debloque-tout-operateur-pas-cher/290063.html#l=10,https://www.forza-refurbished.nl/apple-iphone/11/iphone-11-128gb-zwart,https://www.refurbished.nl/iphone-11/128gb-zwart?spi=74588,https://www.recommerce.com/fr/iphone-11-128go-noir?grade=5459,"https://www.apple.com/nl/shop/buy-iphone/iphone-11/6,1%E2%80%91inch-display-128gb-zwart"
,iPhone 11,128 GB,Black,B,https://swappie.com/nl/iphone/iphone-11/iphone-11-128gb-zwart-7/,https://www.refurbed.de/p/iphone-11/4791b/,https://www.backmarket.fr/iphone-11-128-go-noir-debloque-tout-operateur-pas-cher/290063.html#l=11,https://www.forza-refurbished.nl/apple-iphone/11/iphone-11-128gb-zwart,https://www.refurbished.nl/iphone-11/128gb-zwart?spi=111545,https://www.recommerce.com/fr/iphone-11-128go-noir?grade=5456,
,iPhone 11,128 GB,Black,C,https://swappie.com/nl/iphone/iphone-11/iphone-11-128gb-zwart-4/,https://www.refurbed.de/p/iphone-11/4791c/,https://www.backmarket.fr/iphone-11-128-go-noir-debloque-tout-operateur-pas-cher/290063.html#l=12,https://www.forza-refurbished.nl/apple-iphone/11/iphone-11-128gb-zwart,,,
,iPhone 11,256 GB,Black,A,,https://www.refurbed.de/p/iphone-11/4794/,https://www.backmarket.fr/iphone-11-256-go-noir-debloque-tout-operateur-pas-cher/290068.html#l=10,,https://www.refurbished.nl/iphone-11/256gb-zwart?spi=102774,https://www.recommerce.com/fr/iphone-11-256go-noir?grade=5459,
,iPhone 11,256 GB,Black,B,https://swappie.com/nl/iphone/iphone-11/iphone-11-256gb-zwart-3/,https://www.refurbed.de/p/iphone-11/4794b/,https://www.backmarket.fr/iphone-11-256-go-noir-debloque-tout-operateur-pas-cher/290068.html#l=11,,https://www.refurbished.nl/iphone-11/256gb-zwart?spi=111024,https://www.recommerce.com/fr/iphone-11-256go-noir?grade=5456,
,iPhone 11,256 GB,Black,C,https://swappie.com/nl/iphone/iphone-11/iphone-11-256gb-zwart-4/,https://www.refurbed.de/p/iphone-11/4794c/,https://www.backmarket.fr/iphone-11-256-go-noir-debloque-tout-operateur-pas-cher/290068.html#l=12,,https://www.refurbished.nl/iphone-11/256gb-zwart?spi=97158,,
,iPhone 11,64 GB,Green,A,https://swappie.com/nl/iphone/iphone-11/iphone-11-64gb-groen-2/,https://www.refurbed.de/p/iphone-11/4783/,https://www.backmarket.fr/iphone-11-64-go-vert-debloque-tout-operateur-pas-cher/290059.html#l=10,https://www.forza-refurbished.nl/apple-iphone/11/iphone-11-64gb-green,https://www.refurbished.nl/iphone-11/64gb-groen?spi=92644,https://www.recommerce.com/fr/iphone-11-64go-vert?grade=5459,"https://www.apple.com/nl/shop/buy-iphone/iphone-11/6,1%E2%80%91inch-display-64gb-groen"
,iPhone 11,64 GB,Green,B,https://swappie.com/nl/iphone/iphone-11/iphone-11-64gb-groen-7/,https://www.refurbed.de/p/iphone-11/4783b/,https://www.backmarket.fr/iphone-11-64-go-vert-debloque-tout-operateur-pas-cher/290059.html#l=11,https://www.forza-refurbished.nl/apple-iphone/11/iphone-11-64gb-green,https://www.refurbished.nl/iphone-11/64gb-groen?spi=101787,https://www.recommerce.com/fr/iphone-11-64go-vert?grade=5456,
,iPhone 11,64 GB,Green,C,,https://www.refurbed.de/p/iphone-11/4783c/,https://www.backmarket.fr/iphone-11-64-go-vert-debloque-tout-operateur-pas-cher/290059.html#l=12,https://www.forza-refurbished.nl/apple-iphone/11/iphone-11-64gb-green,https://www.refurbished.nl/iphone-11/64gb-groen?spi=105231,https://www.recommerce.com/fr/iphone-11-64go-vert?grade=5457,
,iPhone 11,128 GB,Green,A,,https://www.refurbed.de/p/iphone-11/4787/,https://www.backmarket.fr/iphone-11-128-go-vert-debloque-tout-operateur-pas-cher/290064.html#l=10,https://www.forza-refurbished.nl/apple-iphone/11/iphone-11-128gb-groen,https://www.refurbished.nl/iphone-11/128gb-groen?spi=92642,https://www.recommerce.com/fr/iphone-11-128go-vert?grade=5459,"https://www.apple.com/nl/shop/buy-iphone/iphone-11/6,1%E2%80%91inch-display-128gb-groen"
,iPhone 11,128 GB,Green,B,,https://www.refurbed.de/p/iphone-11/4787b/,https://www.backmarket.fr/iphone-11-128-go-vert-debloque-tout-operateur-pas-cher/290064.html#l=11,https://www.forza-refurbished.nl/apple-iphone/11/iphone-11-128gb-groen,https://www.refurbished.nl/iphone-11/128gb-groen?spi=96472,https://www.recommerce.com/fr/iphone-11-128go-vert?grade=5456,
,iPhone 11,128 GB,Green,C,,https://www.refurbed.de/p/iphone-11/4787c/,https://www.backmarket.fr/iphone-11-128-go-vert-debloque-tout-operateur-pas-cher/290064.html#l=12,https://www.forza-refurbished.nl/apple-iphone/11/iphone-11-128gb-groen,https://www.refurbished.nl/iphone-11/128gb-groen?spi=102441,,
,iPhone 11,256 GB,Green,A,https://swappie.com/nl/iphone/iphone-11/iphone-11-256gb-groen-2/,https://www.refurbed.de/p/iphone-11/4795/,https://www.backmarket.fr/iphone-11-256-go-vert-debloque-tout-operateur-pas-cher/290070.html#l=10,,https://www.refurbished.nl/iphone-11/256gb-groen?spi=104219,https://www.recommerce.com/fr/iphone-11-256go-vert?grade=5459,
,iPhone 11,256 GB,Green,B,https://swappie.com/nl/iphone/iphone-11/iphone-11-256gb-groen-7/,https://www.refurbed.de/p/iphone-11/4795b/,https://www.backmarket.fr/iphone-11-256-go-vert-debloque-tout-operateur-pas-cher/290070.html#l=11,,,https://www.recommerce.com/fr/iphone-11-256go-vert?grade=5456,
,iPhone 11,256 GB,Green,C,https://swappie.com/nl/iphone/iphone-11/iphone-11-256gb-groen-4/,https://www.refurbed.de/p/iphone-11/4795c/,https://www.backmarket.fr/iphone-11-256-go-vert-debloque-tout-operateur-pas-cher/290070.html#l=12,,,,
,iPhone 11,64 GB,Purple,A,https://swappie.com/nl/iphone/iphone-11/iphone-11-64gb-paars-6/,https://www.refurbed.de/p/iphone-11/4785/,https://www.backmarket.fr/iphone-11-64-go-mauve-debloque-tout-operateur-pas-cher/290062.html#l=10,https://www.forza-refurbished.nl/apple-iphone/11/iphone-11-64gb-purple,https://www.refurbished.nl/iphone-11/64gb-paars?spi=92645,https://www.recommerce.com/fr/iphone-11-64go-violet?grade=5459,"https://www.apple.com/nl/shop/buy-iphone/iphone-11/6,1%E2%80%91inch-display-64gb-paars"
,iPhone 11,64 GB,Purple,B,https://swappie.com/nl/iphone/iphone-11/iphone-11-64gb-paars-3/,https://www.refurbed.de/p/iphone-11/4785b/,https://www.backmarket.fr/iphone-11-64-go-mauve-debloque-tout-operateur-pas-cher/290062.html#l=11,https://www.forza-refurbished.nl/apple-iphone/11/iphone-11-64gb-purple,https://www.refurbished.nl/iphone-11/64gb-paars?spi=96502,https://www.recommerce.com/fr/iphone-11-64go-violet?grade=5456,
,iPhone 11,64 GB,Purple,C,https://swappie.com/nl/iphone/iphone-11/iphone-11-64gb-paars-4/,https://www.refurbed.de/p/iphone-11/4785c/,https://www.backmarket.fr/iphone-11-64-go-mauve-debloque-tout-operateur-pas-cher/290062.html#l=12,https://www.forza-refurbished.nl/apple-iphone/11/iphone-11-64gb-purple,https://www.refurbished.nl/iphone-11/64gb-paars?spi=105232,,
,iPhone 11,128 GB,Purple,A,,https://www.refurbed.de/p/iphone-11/4788/,https://www.backmarket.fr/iphone-11-128-go-mauve-debloque-tout-operateur-pas-cher/290067.html#l=10,https://www.forza-refurbished.nl/apple-iphone/11/iphone-11-128gb-paars,https://www.refurbished.nl/iphone-11/128gb-paars?spi=101775,https://www.recommerce.com/fr/iphone-11-128go-violet?grade=5459,"https://www.apple.com/nl/shop/buy-iphone/iphone-11/6,1%E2%80%91inch-display-128gb-paars"
,iPhone 11,128 GB,Purple,B,,https://www.refurbed.de/p/iphone-11/4788b/,https://www.backmarket.fr/iphone-11-128-go-mauve-debloque-tout-operateur-pas-cher/290067.html#l=11,https://www.forza-refurbished.nl/apple-iphone/11/iphone-11-128gb-paars,,https://www.recommerce.com/fr/iphone-11-128go-violet?grade=5456,
,iPhone 11,128 GB,Purple,C,,https://www.refurbed.de/p/iphone-11/4788c/,https://www.backmarket.fr/iphone-11-128-go-mauve-debloque-tout-operateur-pas-cher/290067.html#l=12,https://www.forza-refurbished.nl/apple-iphone/11/iphone-11-128gb-paars,https://www.refurbished.nl/iphone-11/128gb-paars?spi=97172,,
,iPhone 11,256 GB,Purple,A,https://swappie.com/nl/iphone/iphone-11/iphone-11-256gb-paars-6/,https://www.refurbed.de/p/iphone-11/4797/,https://www.backmarket.fr/iphone-11-256-go-mauve-debloque-tout-operateur-pas-cher/290073.html#l=10,,https://www.refurbished.nl/iphone-11/256gb-paars?spi=104220,https://www.recommerce.com/fr/iphone-11-256go-violet?grade=5459,
,iPhone 11,256 GB,Purple,B,,https://www.refurbed.de/p/iphone-11/4797b/,https://www.backmarket.fr/iphone-11-256-go-mauve-debloque-tout-operateur-pas-cher/290073.html#l=11,,https://www.refurbished.nl/iphone-11/256gb-paars?spi=82690,https://www.recommerce.com/fr/iphone-11-256go-violet?grade=5456,
,iPhone 11,256 GB,Purple,C,https://swappie.com/nl/iphone/iphone-11/iphone-11-256gb-paars-8/,https://www.refurbed.de/p/iphone-11/4797c/,https://www.backmarket.fr/iphone-11-256-go-mauve-debloque-tout-operateur-pas-cher/290073.html#l=12,,,,
,iPhone 11,64 GB,Red,A,https://swappie.com/nl/iphone/iphone-11/iphone-11-64gb-rood-2/,https://www.refurbed.de/p/iphone-11/4786/,https://www.backmarket.fr/iphone-11-64-go-rouge-debloque-tout-operateur-pas-cher/290060.html#l=10,https://www.forza-refurbished.nl/apple-iphone/11/iphone-11-64gb-red,https://www.refurbished.nl/iphone-11/64gb-rood?spi=101293,https://www.recommerce.com/fr/iphone-11-64go-rouge?grade=5459,"https://www.apple.com/nl/shop/buy-iphone/iphone-11/6,1%E2%80%91inch-display-64gb-rood"
,iPhone 11,64 GB,Red,B,https://swappie.com/nl/iphone/iphone-11/iphone-11-64gb-rood-3/,https://www.refurbed.de/p/iphone-11/4786b/,https://www.backmarket.fr/iphone-11-64-go-rouge-debloque-tout-operateur-pas-cher/290060.html#l=11,https://www.forza-refurbished.nl/apple-iphone/11/iphone-11-64gb-red,https://www.refurbished.nl/iphone-11/64gb-rood?spi=80636,https://www.recommerce.com/fr/iphone-11-64go-rouge?grade=5456,
,iPhone 11,64 GB,Red,C,https://swappie.com/nl/iphone/iphone-11/iphone-11-64gb-rood-8/,https://www.refurbed.de/p/iphone-11/4786c/,https://www.backmarket.fr/iphone-11-64-go-rouge-debloque-tout-operateur-pas-cher/290060.html#l=12,https://www.forza-refurbished.nl/apple-iphone/11/iphone-11-64gb-red,https://www.refurbished.nl/iphone-11/64gb-rood?spi=110704,,
,iPhone 11,128 GB,Red,A,https://swappie.com/nl/iphone/iphone-11/iphone-11-128gb-rood-2/,https://www.refurbed.de/p/iphone-11/4790/,https://www.backmarket.fr/iphone-11-128-go-rouge-debloque-tout-operateur-pas-cher/290065.html#l=10,https://www.forza-refurbished.nl/apple-iphone/11/iphone-11-128gb-rood,https://www.refurbished.nl/iphone-11/128gb-rood?spi=92643,https://www.recommerce.com/fr/iphone-11-128go-rouge?grade=5459,"https://www.apple.com/nl/shop/buy-iphone/iphone-11/6,1%E2%80%91inch-display-128gb-rood"
,iPhone 11,128 GB,Red,B,https://swappie.com/nl/iphone/iphone-11/iphone-11-128gb-rood-3/,https://www.refurbed.de/p/iphone-11/4790b/,https://www.backmarket.fr/iphone-11-128-go-rouge-debloque-tout-operateur-pas-cher/290065.html#l=11,https://www.forza-refurbished.nl/apple-iphone/11/iphone-11-128gb-rood,https://www.refurbished.nl/iphone-11/128gb-rood?spi=101786,https://www.recommerce.com/fr/iphone-11-128go-rouge?grade=5456,
,iPhone 11,128 GB,Red,C,https://swappie.com/nl/iphone/iphone-11/iphone-11-128gb-rood-4/,https://www.refurbed.de/p/iphone-11/4790c/,https://www.backmarket.fr/iphone-11-128-go-rouge-debloque-tout-operateur-pas-cher/290065.html#l=12,https://www.forza-refurbished.nl/apple-iphone/11/iphone-11-128gb-rood,https://www.refurbished.nl/iphone-11/128gb-rood?spi=101286,https://www.recommerce.com/fr/iphone-11-128go-rouge?grade=5457,
,iPhone 11,256 GB,Red,A,,https://www.refurbed.de/p/iphone-11/4798/,https://www.backmarket.fr/iphone-11-256-go-rouge-debloque-tout-operateur-pas-cher/290071.html#l=10,,https://www.refurbished.nl/iphone-11/256gb-rood?spi=74559,https://www.recommerce.com/fr/iphone-11-256go-rouge?grade=5459,
,iPhone 11,256 GB,Red,B,https://swappie.com/nl/iphone/iphone-11/iphone-11-256gb-rood-7/,https://www.refurbed.de/p/iphone-11/4798b/,https://www.backmarket.fr/iphone-11-256-go-rouge-debloque-tout-operateur-pas-cher/290071.html#l=11,,https://www.refurbished.nl/iphone-11/256gb-rood?spi=96501,https://www.recommerce.com/fr/iphone-11-256go-rouge?grade=5456,
,iPhone 11,256 GB,Red,C,https://swappie.com/nl/iphone/iphone-11/iphone-11-256gb-rood-4/,https://www.refurbed.de/p/iphone-11/4798c/,https://www.backmarket.fr/iphone-11-256-go-rouge-debloque-tout-operateur-pas-cher/290071.html#l=12,,https://www.refurbished.nl/iphone-11/256gb-rood?spi=108386,,
,iPhone 11,64 GB,White,A,https://swappie.com/nl/iphone/iphone-11/iphone-11-64gb-wit-6/,https://www.refurbed.de/p/iphone-11/4782/,https://www.backmarket.fr/iphone-11-64-go-blanc-debloque-tout-operateur-pas-cher/290058.html#l=10,https://www.forza-refurbished.nl/apple-iphone/11/iphone-11-64gb-white,https://www.refurbished.nl/iphone-11/64gb-wit?spi=92646,https://www.recommerce.com/fr/iphone-11-64go-blanc?grade=5459,"https://www.apple.com/nl/shop/buy-iphone/iphone-11/6,1%E2%80%91inch-display-64gb-wit"
,iPhone 11,64 GB,White,B,https://swappie.com/nl/iphone/iphone-11/iphone-11-64gb-wit-7/,https://www.refurbed.de/p/iphone-11/4782b/,https://www.backmarket.fr/iphone-11-64-go-blanc-debloque-tout-operateur-pas-cher/290058.html#l=11,https://www.forza-refurbished.nl/apple-iphone/11/iphone-11-64gb-white,https://www.refurbished.nl/iphone-11/64gb-wit?spi=74539,https://www.recommerce.com/fr/iphone-11-64go-blanc?grade=5456,
,iPhone 11,64 GB,White,C,https://swappie.com/nl/iphone/iphone-11/iphone-11-64gb-wit-8/,https://www.refurbed.de/p/iphone-11/4782c/,https://www.backmarket.fr/iphone-11-64-go-blanc-debloque-tout-operateur-pas-cher/290058.html#l=12,https://www.forza-refurbished.nl/apple-iphone/11/iphone-11-64gb-white,https://www.refurbished.nl/iphone-11/64gb-wit?spi=106234,https://www.recommerce.com/fr/iphone-11-64go-blanc?grade=5457,
,iPhone 11,128 GB,White,A,https://swappie.com/nl/iphone/iphone-11/iphone-11-128gb-wit-2/,https://www.refurbed.de/p/iphone-11/4792/,https://www.backmarket.fr/iphone-11-128-go-blanc-debloque-tout-operateur-pas-cher/311316.html#l=10,https://www.forza-refurbished.nl/apple-iphone/11/iphone-11-128gb-wit,https://www.refurbished.nl/iphone-11/128gb-wit?spi=97225,https://www.recommerce.com/fr/iphone-11-128go-blanc?grade=5459,"https://www.apple.com/nl/shop/buy-iphone/iphone-11/6,1%E2%80%91inch-display-128gb-wit"
,iPhone 11,128 GB,White,B,,https://www.refurbed.de/p/iphone-11/4792b/,https://www.backmarket.fr/iphone-11-128-go-blanc-debloque-tout-operateur-pas-cher/311316.html#l=11,https://www.forza-refurbished.nl/apple-iphone/11/iphone-11-128gb-wit,https://www.refurbished.nl/iphone-11/128gb-wit?spi=99814,https://www.recommerce.com/fr/iphone-11-128go-blanc?grade=5456,
,iPhone 11,128 GB,White,C,,https://www.refurbed.de/p/iphone-11/4792c/,https://www.backmarket.fr/iphone-11-128-go-blanc-debloque-tout-operateur-pas-cher/311316.html#l=12,https://www.forza-refurbished.nl/apple-iphone/11/iphone-11-128gb-wit,https://www.refurbished.nl/iphone-11/128gb-wit?spi=105230,https://www.recommerce.com/fr/iphone-11-128go-blanc?grade=5457,
,iPhone 11,256 GB,White,A,,https://www.refurbed.de/p/iphone-11/4796/,https://www.backmarket.fr/iphone-11-256-go-blanc-debloque-tout-operateur-pas-cher/290069.html#l=10,,https://www.refurbished.nl/iphone-11/256gb-wit?spi=101661,https://www.recommerce.com/fr/iphone-11-256go-blanc?grade=5459,
,iPhone 11,256 GB,White,B,,https://www.refurbed.de/p/iphone-11/4796b/,https://www.backmarket.fr/iphone-11-256-go-blanc-debloque-tout-operateur-pas-cher/290069.html#l=11,,,https://www.recommerce.com/fr/iphone-11-256go-blanc?grade=5456,
,iPhone 11,256 GB,White,C,https://swappie.com/nl/iphone/iphone-11/iphone-11-256gb-wit-8/,https://www.refurbed.de/p/iphone-11/4796c/,https://www.backmarket.fr/iphone-11-256-go-blanc-debloque-tout-operateur-pas-cher/290069.html#l=12,,,https://www.recommerce.com/fr/iphone-11-256go-blanc?grade=5457,
,iPhone 11,64 GB,Yellow,A,,https://www.refurbed.de/p/iphone-11/4784/,https://www.backmarket.fr/iphone-11-64-go-jaune-debloque-tout-operateur-pas-cher/312025.html#l=10,https://www.forza-refurbished.nl/apple-iphone/11/iphone-11-64gb-yellow,https://www.refurbished.nl/iphone-11/64gb-geel?spi=92647,https://www.recommerce.com/fr/iphone-11-64go-jaune?grade=5459,"https://www.apple.com/nl/shop/buy-iphone/iphone-11/6,1%E2%80%91inch-display-64gb-geel"
,iPhone 11,64 GB,Yellow,B,https://swappie.com/nl/iphone/iphone-11/iphone-11-64gb-geel-3/,https://www.refurbed.de/p/iphone-11/4784b/,https://www.backmarket.fr/iphone-11-64-go-jaune-debloque-tout-operateur-pas-cher/312025.html#l=11,https://www.forza-refurbished.nl/apple-iphone/11/iphone-11-64gb-yellow,https://www.refurbished.nl/iphone-11/64gb-geel?spi=74536,https://www.recommerce.com/fr/iphone-11-64go-jaune?grade=5456,
,iPhone 11,64 GB,Yellow,C,,https://www.refurbed.de/p/iphone-11/4784c/,https://www.backmarket.fr/iphone-11-64-go-jaune-debloque-tout-operateur-pas-cher/312025.html#l=12,https://www.forza-refurbished.nl/apple-iphone/11/iphone-11-64gb-yellow,https://www.refurbished.nl/iphone-11/64gb-geel?spi=110854,,
,iPhone 11,128 GB,Yellow,A,,https://www.refurbed.de/p/iphone-11/4789/,https://www.backmarket.fr/iphone-11-128-go-jaune-debloque-tout-operateur-pas-cher/290066.html#l=10,https://www.forza-refurbished.nl/apple-iphone/11/iphone-11-128gb-geel,https://www.refurbished.nl/iphone-11/128gb-geel?spi=102460,https://www.recommerce.com/fr/iphone-11-128go-jaune?grade=5459,"https://www.apple.com/nl/shop/buy-iphone/iphone-11/6,1%E2%80%91inch-display-128gb-geel"
,iPhone 11,128 GB,Yellow,B,https://swappie.com/nl/iphone/iphone-11/iphone-11-128gb-geel-3/,https://www.refurbed.de/p/iphone-11/4789b/,https://www.backmarket.fr/iphone-11-128-go-jaune-debloque-tout-operateur-pas-cher/290066.html#l=11,https://www.forza-refurbished.nl/apple-iphone/11/iphone-11-128gb-geel,https://www.refurbished.nl/iphone-11/128gb-geel?spi=100246,https://www.recommerce.com/fr/iphone-11-128go-jaune?grade=5456,
,iPhone 11,128 GB,Yellow,C,,https://www.refurbed.de/p/iphone-11/4789c/,https://www.backmarket.fr/iphone-11-128-go-jaune-debloque-tout-operateur-pas-cher/290066.html#l=12,https://www.forza-refurbished.nl/apple-iphone/11/iphone-11-128gb-geel,https://www.refurbished.nl/iphone-11/128gb-geel?spi=111012,,
,iPhone 11,256 GB,Yellow,A,,https://www.refurbed.de/p/iphone-11/4793/,https://www.backmarket.fr/iphone-11-256-go-jaune-debloque-tout-operateur-pas-cher/290072.html#l=10,,https://www.refurbished.nl/iphone-11/256gb-geel?spi=104221,,
,iPhone 11,256 GB,Yellow,B,https://swappie.com/nl/iphone/iphone-11/iphone-11-256gb-geel-3/,https://www.refurbed.de/p/iphone-11/4793b/,https://www.backmarket.fr/iphone-11-256-go-jaune-debloque-tout-operateur-pas-cher/290072.html#l=11,,,,
,iPhone 11,256 GB,Yellow,C,,https://www.refurbed.de/p/iphone-11/4793c/,https://www.backmarket.fr/iphone-11-256-go-jaune-debloque-tout-operateur-pas-cher/290072.html#l=12,,https://www.refurbished.nl/iphone-11/256gb-geel?spi=109428,,
,iPhone 11 Pro,64 GB,Gold,A,https://swappie.com/nl/iphone/iphone-11-pro/iphone-11-pro-64gb-goud-2/,https://www.refurbed.de/p/iphone-11-pro/4799/,https://www.backmarket.fr/iphone-11-pro-64-go-or-debloque-tout-operateur-pas-cher/290035.html#l=10,,https://www.refurbished.nl/iphone-11-pro/64gb-goud?spi=101899,https://www.recommerce.com/fr/iphone-11-pro-64go-or?grade=5459,
,iPhone 11 Pro,64 GB,Gold,B,https://swappie.com/nl/iphone/iphone-11-pro/iphone-11-pro-64gb-goud-3/,https://www.refurbed.de/p/iphone-11-pro/4799b/,https://www.backmarket.fr/iphone-11-pro-64-go-or-debloque-tout-operateur-pas-cher/290035.html#l=11,,,https://www.recommerce.com/fr/iphone-11-pro-64go-or?grade=5456,
,iPhone 11 Pro,64 GB,Gold,C,,https://www.refurbed.de/p/iphone-11-pro/4799c/,https://www.backmarket.fr/iphone-11-pro-64-go-or-debloque-tout-operateur-pas-cher/290035.html#l=12,,https://www.refurbished.nl/iphone-11-pro/64gb-goud?spi=110864,https://www.recommerce.com/fr/iphone-11-pro-64go-or?grade=5457,
,iPhone 11 Pro,256 GB,Gold,A,https://swappie.com/nl/iphone/iphone-11-pro/iphone-11-pro-256gb-goud-2/,https://www.refurbed.de/p/iphone-11-pro/4805/,https://www.backmarket.fr/iphone-11-pro-256-go-or-debloque-tout-operateur-pas-cher/290039.html#l=10,,https://www.refurbished.nl/iphone-11-pro/256gb-goud?spi=97239,https://www.recommerce.com/fr/iphone-11-pro-256go-or?grade=5459,
,iPhone 11 Pro,256 GB,Gold,B,https://swappie.com/nl/iphone/iphone-11-pro/iphone-11-pro-256gb-goud-3/,https://www.refurbed.de/p/iphone-11-pro/4805b/,https://www.backmarket.fr/iphone-11-pro-256-go-or-debloque-tout-operateur-pas-cher/290039.html#l=11,,https://www.refurbished.nl/iphone-11-pro/256gb-goud?spi=111466,https://www.recommerce.com/fr/iphone-11-pro-256go-or?grade=5456,
,iPhone 11 Pro,256 GB,Gold,C,,https://www.refurbed.de/p/iphone-11-pro/4805c/,https://www.backmarket.fr/iphone-11-pro-256-go-or-debloque-tout-operateur-pas-cher/290039.html#l=12,,https://www.refurbished.nl/iphone-11-pro/256gb-goud?spi=99621,https://www.recommerce.com/fr/iphone-11-pro-256go-or?grade=5457,
,iPhone 11 Pro,512 GB,Gold,A,,https://www.refurbed.de/p/iphone-11-pro/4808/,https://www.backmarket.fr/iphone-11-pro-512-go-or-debloque-tout-operateur-pas-cher/313138.html#l=10,,https://www.refurbished.nl/iphone-11-pro/512gb-goud?spi=99749,,
,iPhone 11 Pro,512 GB,Gold,B,,https://www.refurbed.de/p/iphone-11-pro/4808b/,https://www.backmarket.fr/iphone-11-pro-512-go-or-debloque-tout-operateur-pas-cher/313138.html#l=11,,,https://www.recommerce.com/fr/iphone-11-pro-512go-or?grade=5456,
,iPhone 11 Pro,512 GB,Gold,C,,https://www.refurbed.de/p/iphone-11-pro/4808c/,https://www.backmarket.fr/iphone-11-pro-512-go-or-debloque-tout-operateur-pas-cher/313138.html#l=12,,https://www.refurbished.nl/iphone-11-pro/512gb-goud?spi=102443,,
,iPhone 11 Pro,64 GB,Space Gray,A,https://swappie.com/nl/iphone/iphone-11-pro/iphone-11-pro-64gb-spacegrijs-2/,https://www.refurbed.de/p/iphone-11-pro/4800/,https://www.backmarket.fr/iphone-11-pro-64-go-gris-sideral-debloque-tout-operateur-pas-cher/290033.html#l=10,https://www.forza-refurbished.nl/apple-iphone/iphone-11-pro/iphone-11-pro-64gb-space-grey,https://www.refurbished.nl/iphone-11-pro/64gb-space-gray?spi=103368,https://www.recommerce.com/fr/iphone-11-pro-64go-gris-sideral?grade=5459,
,iPhone 11 Pro,64 GB,Space Gray,B,https://swappie.com/nl/iphone/iphone-11-pro/iphone-11-pro-64gb-spacegrijs-3/,https://www.refurbed.de/p/iphone-11-pro/4800b/,https://www.backmarket.fr/iphone-11-pro-64-go-gris-sideral-debloque-tout-operateur-pas-cher/290033.html#l=11,https://www.forza-refurbished.nl/apple-iphone/iphone-11-pro/iphone-11-pro-64gb-space-grey,https://www.refurbished.nl/iphone-11-pro/64gb-space-gray?spi=99815,https://www.recommerce.com/fr/iphone-11-pro-64go-gris-sideral?grade=5456,
,iPhone 11 Pro,64 GB,Space Gray,C,https://swappie.com/nl/iphone/iphone-11-pro/iphone-11-pro-64gb-spacegrijs-4/,https://www.refurbed.de/p/iphone-11-pro/4800c/,https://www.backmarket.fr/iphone-11-pro-64-go-gris-sideral-debloque-tout-operateur-pas-cher/290033.html#l=12,https://www.forza-refurbished.nl/apple-iphone/iphone-11-pro/iphone-11-pro-64gb-space-grey,https://www.refurbished.nl/iphone-11-pro/64gb-space-gray?spi=110596,https://www.recommerce.com/fr/iphone-11-pro-64go-gris-sideral?grade=5457,
,iPhone 11 Pro,256 GB,Space Gray,A,https://swappie.com/nl/iphone/iphone-11-pro/iphone-11-pro-256gb-spacegrijs-2/,https://www.refurbed.de/p/iphone-11-pro/4803/,https://www.backmarket.fr/iphone-11-pro-256-go-gris-sideral-debloque-tout-operateur-pas-cher/290037.html#l=10,https://www.forza-refurbished.nl/apple-iphone/iphone-11-pro/iphone-11-pro-256gb-space-grey,https://www.refurbished.nl/iphone-11-pro/256gb-space-gray?spi=101898,https://www.recommerce.com/fr/iphone-11-pro-256go-gris-sideral?grade=5459,
,iPhone 11 Pro,256 GB,Space Gray,B,https://swappie.com/nl/iphone/iphone-11-pro/iphone-11-pro-256gb-spacegrijs-7/,https://www.refurbed.de/p/iphone-11-pro/4803b/,https://www.backmarket.fr/iphone-11-pro-256-go-gris-sideral-debloque-tout-operateur-pas-cher/290037.html#l=11,https://www.forza-refurbished.nl/apple-iphone/iphone-11-pro/iphone-11-pro-256gb-space-grey,https://www.refurbished.nl/iphone-11-pro/256gb-space-gray?spi=99622,https://www.recommerce.com/fr/iphone-11-pro-256go-gris-sideral?grade=5456,
,iPhone 11 Pro,256 GB,Space Gray,C,https://swappie.com/nl/iphone/iphone-11-pro/iphone-11-pro-256gb-spacegrijs-8/,https://www.refurbed.de/p/iphone-11-pro/4803c/,https://www.backmarket.fr/iphone-11-pro-256-go-gris-sideral-debloque-tout-operateur-pas-cher/290037.html#l=12,https://www.forza-refurbished.nl/apple-iphone/iphone-11-pro/iphone-11-pro-256gb-space-grey,https://www.refurbished.nl/iphone-11-pro/256gb-space-gray?spi=97033,https://www.recommerce.com/fr/iphone-11-pro-256go-gris-sideral?grade=5457,
,iPhone 11 Pro,512 GB,Space Gray,A,https://swappie.com/nl/iphone/iphone-11-pro/iphone-11-pro-512gb-spacegrijs-2/,https://www.refurbed.de/p/iphone-11-pro/4809/,https://www.backmarket.fr/iphone-11-pro-512-go-gris-sideral-debloque-tout-operateur-pas-cher/290041.html#l=10,,https://www.refurbished.nl/iphone-11-pro/512gb-space-gray?spi=99611,https://www.recommerce.com/fr/iphone-11-pro-512go-gris-sideral?grade=5459,
,iPhone 11 Pro,512 GB,Space Gray,B,https://swappie.com/nl/iphone/iphone-11-pro/iphone-11-pro-512gb-spacegrijs-7/,https://www.refurbed.de/p/iphone-11-pro/4809b/,https://www.backmarket.fr/iphone-11-pro-512-go-gris-sideral-debloque-tout-operateur-pas-cher/290041.html#l=11,,,https://www.recommerce.com/fr/iphone-11-pro-512go-gris-sideral?grade=5456,
,iPhone 11 Pro,512 GB,Space Gray,C,,https://www.refurbed.de/p/iphone-11-pro/4809c/,https://www.backmarket.fr/iphone-11-pro-512-go-gris-sideral-debloque-tout-operateur-pas-cher/290041.html#l=12,,,https://www.recommerce.com/fr/iphone-11-pro-512go-gris-sideral?grade=5457,
,iPhone 11 Pro,64 GB,Silver,A,https://swappie.com/nl/iphone/iphone-11-pro/iphone-11-pro-64gb-zilver-2/,https://www.refurbed.de/p/iphone-11-pro/4802/,https://www.backmarket.fr/iphone-11-pro-64-go-argent-debloque-tout-operateur-pas-cher/290034.html#l=10,https://www.forza-refurbished.nl/apple-iphone/iphone-11-pro/iphone-11-pro-64gb-zilver,https://www.refurbished.nl/iphone-11-pro/64gb-zilver?spi=101659,https://www.recommerce.com/fr/iphone-11-pro-64go-argent?grade=5459,
,iPhone 11 Pro,64 GB,Silver,B,,https://www.refurbed.de/p/iphone-11-pro/4802b/,https://www.backmarket.fr/iphone-11-pro-64-go-argent-debloque-tout-operateur-pas-cher/290034.html#l=11,https://www.forza-refurbished.nl/apple-iphone/iphone-11-pro/iphone-11-pro-64gb-zilver,https://www.refurbished.nl/iphone-11-pro/64gb-zilver?spi=101258,https://www.recommerce.com/fr/iphone-11-pro-64go-argent?grade=5456,
,iPhone 11 Pro,64 GB,Silver,C,,https://www.refurbed.de/p/iphone-11-pro/4802c/,https://www.backmarket.fr/iphone-11-pro-64-go-argent-debloque-tout-operateur-pas-cher/290034.html#l=12,https://www.forza-refurbished.nl/apple-iphone/iphone-11-pro/iphone-11-pro-64gb-zilver,https://www.refurbished.nl/iphone-11-pro/64gb-zilver?spi=96509,https://www.recommerce.com/fr/iphone-11-pro-64go-argent?grade=5457,
,iPhone 11 Pro,256 GB,Silver,A,https://swappie.com/nl/iphone/iphone-11-pro/iphone-11-pro-256gb-zilver-2/,https://www.refurbed.de/p/iphone-11-pro/4804/,https://www.backmarket.fr/iphone-11-pro-256-go-argent-debloque-tout-operateur-pas-cher/327022.html#l=10,https://www.forza-refurbished.nl/apple-iphone/iphone-11-pro/iphone-11-pro-256gb-zilver,https://www.refurbished.nl/iphone-11-pro/256gb-zilver?spi=101900,https://www.recommerce.com/fr/iphone-11-pro-256go-argent?grade=5459,
,iPhone 11 Pro,256 GB,Silver,B,https://swappie.com/nl/iphone/iphone-11-pro/iphone-11-pro-256gb-zilver-3/,https://www.refurbed.de/p/iphone-11-pro/4804b/,https://www.backmarket.fr/iphone-11-pro-256-go-argent-debloque-tout-operateur-pas-cher/327022.html#l=11,https://www.forza-refurbished.nl/apple-iphone/iphone-11-pro/iphone-11-pro-256gb-zilver,https://www.refurbished.nl/iphone-11-pro/256gb-zilver?spi=105044,https://www.recommerce.com/fr/iphone-11-pro-256go-argent?grade=5456,
,iPhone 11 Pro,256 GB,Silver,C,https://swappie.com/nl/iphone/iphone-11-pro/iphone-11-pro-256gb-zilver-4/,https://www.refurbed.de/p/iphone-11-pro/4804c/,https://www.backmarket.fr/iphone-11-pro-256-go-argent-debloque-tout-operateur-pas-cher/327022.html#l=12,https://www.forza-refurbished.nl/apple-iphone/iphone-11-pro/iphone-11-pro-256gb-zilver,https://www.refurbished.nl/iphone-11-pro/256gb-zilver?spi=96508,,
,iPhone 11 Pro,512 GB,Silver,A,https://swappie.com/nl/iphone/iphone-11-pro/iphone-11-pro-512gb-zilver-2/,https://www.refurbed.de/p/iphone-11-pro/4810/,https://www.backmarket.fr/iphone-11-pro-512-go-argent-debloque-tout-operateur-pas-cher/328849.html#l=10,,https://www.refurbished.nl/iphone-11-pro/512gb-zilver?spi=102461,,
,iPhone 11 Pro,512 GB,Silver,B,,https://www.refurbed.de/p/iphone-11-pro/4810b/,https://www.backmarket.fr/iphone-11-pro-512-go-argent-debloque-tout-operateur-pas-cher/328849.html#l=11,,https://www.refurbished.nl/iphone-11-pro/512gb-zilver?spi=96491,,
,iPhone 11 Pro,512 GB,Silver,C,,https://www.refurbed.de/p/iphone-11-pro/4810c/,https://www.backmarket.fr/iphone-11-pro-512-go-argent-debloque-tout-operateur-pas-cher/328849.html#l=12,,https://www.refurbished.nl/iphone-11-pro/512gb-zilver?spi=96455,,
,iPhone 11 Pro,64 GB,Midnight Green,A,https://swappie.com/nl/iphone/iphone-11-pro/iphone-11-pro-64gb-middernachtgroen-2/,https://www.refurbed.de/p/iphone-11-pro/4801/,https://www.backmarket.fr/iphone-11-pro-64-go-vert-nuit-debloque-tout-operateur-pas-cher/290036.html#l=10,,https://www.refurbished.nl/iphone-11-pro/64gb-midnight-green?spi=102113,https://www.recommerce.com/fr/iphone-11-pro-64go-vert?grade=5459,
,iPhone 11 Pro,64 GB,Midnight Green,B,https://swappie.com/nl/iphone/iphone-11-pro/iphone-11-pro-64gb-middernachtgroen-3/,https://www.refurbed.de/p/iphone-11-pro/4801b/,https://www.backmarket.fr/iphone-11-pro-64-go-vert-nuit-debloque-tout-operateur-pas-cher/290036.html#l=11,,https://www.refurbished.nl/iphone-11-pro/64gb-midnight-green?spi=97153,https://www.recommerce.com/fr/iphone-11-pro-64go-vert?grade=5456,
,iPhone 11 Pro,64 GB,Midnight Green,C,https://swappie.com/nl/iphone/iphone-11-pro/iphone-11-pro-64gb-middernachtgroen-4/,https://www.refurbed.de/p/iphone-11-pro/4801c/,https://www.backmarket.fr/iphone-11-pro-64-go-vert-nuit-debloque-tout-operateur-pas-cher/290036.html#l=12,,https://www.refurbished.nl/iphone-11-pro/64gb-midnight-green?spi=101271,https://www.recommerce.com/fr/iphone-11-pro-64go-vert?grade=5457,
,iPhone 11 Pro,256 GB,Midnight Green,A,https://swappie.com/nl/iphone/iphone-11-pro/iphone-11-pro-256gb-middernachtgroen-2/,https://www.refurbed.de/p/iphone-11-pro/4806/,https://www.backmarket.fr/iphone-11-pro-256-go-vert-nuit-debloque-tout-operateur-pas-cher/326956.html#l=10,,https://www.refurbished.nl/iphone-11-pro/256gb-midnight-green?spi=97159,https://www.recommerce.com/fr/iphone-11-pro-256go-vert?grade=5459,
,iPhone 11 Pro,256 GB,Midnight Green,B,https://swappie.com/nl/iphone/iphone-11-pro/iphone-11-pro-256gb-middernachtgroen-3/,https://www.refurbed.de/p/iphone-11-pro/4806b/,https://www.backmarket.fr/iphone-11-pro-256-go-vert-nuit-debloque-tout-operateur-pas-cher/326956.html#l=11,,https://www.refurbished.nl/iphone-11-pro/256gb-midnight-green?spi=102438,https://www.recommerce.com/fr/iphone-11-pro-256go-vert?grade=5456,
,iPhone 11 Pro,256 GB,Midnight Green,C,https://swappie.com/nl/iphone/iphone-11-pro/iphone-11-pro-256gb-middernachtgroen-4/,https://www.refurbed.de/p/iphone-11-pro/4806c/,https://www.backmarket.fr/iphone-11-pro-256-go-vert-nuit-debloque-tout-operateur-pas-cher/326956.html#l=12,,https://www.refurbished.nl/iphone-11-pro/256gb-midnight-green?spi=110993,https://www.recommerce.com/fr/iphone-11-pro-256go-vert?grade=5457,
,iPhone 11 Pro,512 GB,Midnight Green,A,https://swappie.com/nl/iphone/iphone-11-pro/iphone-11-pro-512gb-middernachtgroen-2/,https://www.refurbed.de/p/iphone-11-pro/4807/,https://www.backmarket.fr/iphone-11-pro-512-go-vert-nuit-debloque-tout-operateur-pas-cher/290044.html#l=10,,https://www.refurbished.nl/iphone-11-pro/512gb-midnight-green?spi=99481,https://www.recommerce.com/fr/iphone-11-pro-512go-vert?grade=5459,
,iPhone 11 Pro,512 GB,Midnight Green,B,https://swappie.com/nl/iphone/iphone-11-pro/iphone-11-pro-512gb-middernachtgroen-3/,https://www.refurbed.de/p/iphone-11-pro/4807b/,https://www.backmarket.fr/iphone-11-pro-512-go-vert-nuit-debloque-tout-operateur-pas-cher/290044.html#l=11,,https://www.refurbished.nl/iphone-11-pro/512gb-midnight-green?spi=99750,,
,iPhone 11 Pro,512 GB,Midnight Green,C,,https://www.refurbed.de/p/iphone-11-pro/4807c/,https://www.backmarket.fr/iphone-11-pro-512-go-vert-nuit-debloque-tout-operateur-pas-cher/290044.html#l=12,,https://www.refurbished.nl/iphone-11-pro/512gb-midnight-green?spi=99623,,
